%TF.GenerationSoftware,KiCad,Pcbnew,(7.0.0)*%
%TF.CreationDate,2023-03-24T15:19:01+01:00*%
%TF.ProjectId,VrfietsPCB,56726669-6574-4735-9043-422e6b696361,rev?*%
%TF.SameCoordinates,Original*%
%TF.FileFunction,Soldermask,Top*%
%TF.FilePolarity,Negative*%
%FSLAX46Y46*%
G04 Gerber Fmt 4.6, Leading zero omitted, Abs format (unit mm)*
G04 Created by KiCad (PCBNEW (7.0.0)) date 2023-03-24 15:19:01*
%MOMM*%
%LPD*%
G01*
G04 APERTURE LIST*
G04 Aperture macros list*
%AMRoundRect*
0 Rectangle with rounded corners*
0 $1 Rounding radius*
0 $2 $3 $4 $5 $6 $7 $8 $9 X,Y pos of 4 corners*
0 Add a 4 corners polygon primitive as box body*
4,1,4,$2,$3,$4,$5,$6,$7,$8,$9,$2,$3,0*
0 Add four circle primitives for the rounded corners*
1,1,$1+$1,$2,$3*
1,1,$1+$1,$4,$5*
1,1,$1+$1,$6,$7*
1,1,$1+$1,$8,$9*
0 Add four rect primitives between the rounded corners*
20,1,$1+$1,$2,$3,$4,$5,0*
20,1,$1+$1,$4,$5,$6,$7,0*
20,1,$1+$1,$6,$7,$8,$9,0*
20,1,$1+$1,$8,$9,$2,$3,0*%
G04 Aperture macros list end*
%ADD10R,2.400000X2.400000*%
%ADD11C,2.400000*%
%ADD12C,3.200000*%
%ADD13R,1.600000X1.600000*%
%ADD14O,1.600000X1.600000*%
%ADD15RoundRect,0.237500X-0.287500X-0.237500X0.287500X-0.237500X0.287500X0.237500X-0.287500X0.237500X0*%
%ADD16RoundRect,0.250000X0.350000X0.450000X-0.350000X0.450000X-0.350000X-0.450000X0.350000X-0.450000X0*%
%ADD17RoundRect,0.237500X0.287500X0.237500X-0.287500X0.237500X-0.287500X-0.237500X0.287500X-0.237500X0*%
%ADD18RoundRect,0.250000X-0.475000X0.337500X-0.475000X-0.337500X0.475000X-0.337500X0.475000X0.337500X0*%
%ADD19RoundRect,0.250000X-0.650000X1.500000X-0.650000X-1.500000X0.650000X-1.500000X0.650000X1.500000X0*%
%ADD20RoundRect,0.250000X0.450000X-0.350000X0.450000X0.350000X-0.450000X0.350000X-0.450000X-0.350000X0*%
%ADD21RoundRect,0.250000X-0.450000X0.350000X-0.450000X-0.350000X0.450000X-0.350000X0.450000X0.350000X0*%
%ADD22C,1.600000*%
%ADD23R,2.000000X1.905000*%
%ADD24O,2.000000X1.905000*%
%ADD25RoundRect,0.250000X-0.350000X-0.450000X0.350000X-0.450000X0.350000X0.450000X-0.350000X0.450000X0*%
%ADD26R,2.200000X2.200000*%
%ADD27O,2.200000X2.200000*%
%ADD28R,0.450000X1.500000*%
%ADD29RoundRect,0.150000X-0.825000X-0.150000X0.825000X-0.150000X0.825000X0.150000X-0.825000X0.150000X0*%
G04 APERTURE END LIST*
D10*
%TO.C,J3*%
X205993999Y-116557999D03*
D11*
X205994000Y-113058000D03*
%TD*%
D12*
%TO.C,REF\u002A\u002A*%
X135128000Y-92456000D03*
%TD*%
D13*
%TO.C,4N35*%
X187451999Y-112267999D03*
D14*
X187451999Y-114807999D03*
X187451999Y-117347999D03*
X195071999Y-117347999D03*
X195071999Y-114807999D03*
X195071999Y-112267999D03*
%TD*%
D12*
%TO.C,REF\u002A\u002A*%
X208280000Y-143510000D03*
%TD*%
D10*
%TO.C,reedsensor*%
X174553999Y-141731999D03*
D11*
X178054000Y-141732000D03*
X181554000Y-141732000D03*
%TD*%
D15*
%TO.C,5v*%
X133221000Y-100076000D03*
X134971000Y-100076000D03*
%TD*%
D16*
%TO.C,1k2*%
X139922000Y-100076000D03*
X137922000Y-100076000D03*
%TD*%
D17*
%TO.C,24V*%
X209550000Y-97028000D03*
X207800000Y-97028000D03*
%TD*%
D18*
%TO.C,0.1uF*%
X164338000Y-123644500D03*
X164338000Y-125719500D03*
%TD*%
D19*
%TO.C,D1*%
X199898000Y-112308000D03*
X199898000Y-117308000D03*
%TD*%
D16*
%TO.C,100*%
X139922000Y-103378000D03*
X137922000Y-103378000D03*
%TD*%
D17*
%TO.C,BreakOn*%
X209155000Y-108966000D03*
X207405000Y-108966000D03*
%TD*%
D20*
%TO.C,10k*%
X177292000Y-128746000D03*
X177292000Y-126746000D03*
%TD*%
D21*
%TO.C,249*%
X150622000Y-130032000D03*
X150622000Y-132032000D03*
%TD*%
D12*
%TO.C,REF\u002A\u002A*%
X208280000Y-92456000D03*
%TD*%
D21*
%TO.C,2k4*%
X195072000Y-120666000D03*
X195072000Y-122666000D03*
%TD*%
D20*
%TO.C,10k*%
X199136000Y-128000000D03*
X199136000Y-126000000D03*
%TD*%
D21*
%TO.C,249*%
X150622000Y-122412000D03*
X150622000Y-124412000D03*
%TD*%
D22*
%TO.C,Teensy 4.0*%
X146812000Y-116840000D03*
X149352000Y-116840000D03*
X151892000Y-116840000D03*
X154432000Y-116840000D03*
X156972000Y-116840000D03*
X159512000Y-116840000D03*
X162052000Y-116840000D03*
X164592000Y-116840000D03*
X167132000Y-116840000D03*
X169672000Y-116840000D03*
X172212000Y-116840000D03*
X174752000Y-116840000D03*
X177292000Y-116840000D03*
X179832000Y-116840000D03*
X179832000Y-101600000D03*
X177292000Y-101600000D03*
X174752000Y-101600000D03*
X172212000Y-101600000D03*
X169672000Y-101600000D03*
X167132000Y-101600000D03*
X164592000Y-101600000D03*
X162052000Y-101600000D03*
X159512000Y-101600000D03*
X156972000Y-101600000D03*
X154432000Y-101600000D03*
X151892000Y-101600000D03*
X149352000Y-101600000D03*
X146812000Y-101600000D03*
%TD*%
D23*
%TO.C,IRLZ44N*%
X206755999Y-130047999D03*
D24*
X206755999Y-127507999D03*
X206755999Y-124967999D03*
%TD*%
D25*
%TO.C,12k*%
X202849000Y-97028000D03*
X204849000Y-97028000D03*
%TD*%
D26*
%TO.C,10v*%
X195071999Y-125729999D03*
D27*
X195071999Y-133349999D03*
%TD*%
D28*
%TO.C,bss138*%
X174639999Y-123605999D03*
X173339999Y-123605999D03*
X173989999Y-126265999D03*
%TD*%
D15*
%TO.C,3v3*%
X133221000Y-103378000D03*
X134971000Y-103378000D03*
%TD*%
D10*
%TO.C,24V power*%
X205993999Y-104901999D03*
D11*
X205994000Y-101402000D03*
%TD*%
D21*
%TO.C,249*%
X164338000Y-131302000D03*
X164338000Y-133302000D03*
%TD*%
D29*
%TO.C,max33076*%
X155070000Y-123412000D03*
X155070000Y-124682000D03*
X155070000Y-125952000D03*
X155070000Y-127222000D03*
X155070000Y-128492000D03*
X155070000Y-129762000D03*
X155070000Y-131032000D03*
X155070000Y-132302000D03*
X160020000Y-132302000D03*
X160020000Y-131032000D03*
X160020000Y-129762000D03*
X160020000Y-128492000D03*
X160020000Y-127222000D03*
X160020000Y-125952000D03*
X160020000Y-124682000D03*
X160020000Y-123412000D03*
%TD*%
D25*
%TO.C,390*%
X182642000Y-112268000D03*
X184642000Y-112268000D03*
%TD*%
D10*
%TO.C,spare2*%
X156463999Y-94233999D03*
D11*
X152964000Y-94234000D03*
X149464000Y-94234000D03*
X145964000Y-94234000D03*
%TD*%
D10*
%TO.C,spare1*%
X175005999Y-94233999D03*
D11*
X171506000Y-94234000D03*
X168006000Y-94234000D03*
X164506000Y-94234000D03*
%TD*%
D25*
%TO.C,15k*%
X202708000Y-108966000D03*
X204708000Y-108966000D03*
%TD*%
D20*
%TO.C,10k*%
X170180000Y-125936000D03*
X170180000Y-123936000D03*
%TD*%
D12*
%TO.C,REF\u002A\u002A*%
X135128000Y-143510000D03*
%TD*%
D10*
%TO.C,encoder*%
X141533999Y-141731999D03*
D11*
X145034000Y-141732000D03*
X148534000Y-141732000D03*
X152034000Y-141732000D03*
X155534000Y-141732000D03*
X159034000Y-141732000D03*
X162534000Y-141732000D03*
X166034000Y-141732000D03*
%TD*%
M02*
