M48
; DRILL file {KiCad (7.0.0)} date Fri Mar 24 15:19:03 2023
; FORMAT={-:-/ absolute / inch / decimal}
; #@! TF.CreationDate,2023-03-24T15:19:03+01:00
; #@! TF.GenerationSoftware,Kicad,Pcbnew,(7.0.0)
; #@! TF.FileFunction,NonPlated,1,2,NPTH
FMAT,2
INCH
; #@! TA.AperFunction,NonPlated,NPTH,ComponentDrill
T1C0.1260
%
G90
G05
T1
X5.32Y-3.64
X5.32Y-5.65
X8.2Y-3.64
X8.2Y-5.65
T0
M30
