M48
; DRILL file {KiCad (7.0.0)} date Fri Mar 24 15:19:03 2023
; FORMAT={-:-/ absolute / inch / decimal}
; #@! TF.CreationDate,2023-03-24T15:19:03+01:00
; #@! TF.GenerationSoftware,Kicad,Pcbnew,(7.0.0)
; #@! TF.FileFunction,Plated,1,2,PTH
FMAT,2
INCH
; #@! TA.AperFunction,Plated,PTH,ViaDrill
T1C0.0157
; #@! TA.AperFunction,Plated,PTH,ComponentDrill
T2C0.0315
; #@! TA.AperFunction,Plated,PTH,ComponentDrill
T3C0.0433
; #@! TA.AperFunction,Plated,PTH,ComponentDrill
T4C0.0472
%
G90
G05
T1
X5.59Y-4.07
X5.89Y-5.0
X5.96Y-5.0
X6.04Y-4.9987
X6.06Y-3.88
X6.11Y-5.2687
X6.17Y-3.88
X6.22Y-5.34
X6.2585Y-4.8087
X6.33Y-5.34
X6.38Y-4.75
X6.38Y-5.0587
X6.47Y-5.0087
X6.48Y-4.75
X6.95Y-5.22
X6.95Y-5.32
X7.78Y-4.73
X7.78Y-4.86
T2
X7.38Y-4.42
X7.38Y-4.52
X7.38Y-4.62
X7.68Y-4.42
X7.68Y-4.52
X7.68Y-4.62
T3
X5.78Y-4.0
X5.78Y-4.6
X5.88Y-4.0
X5.88Y-4.6
X5.98Y-4.0
X5.98Y-4.6
X6.08Y-4.0
X6.08Y-4.6
X6.18Y-4.0
X6.18Y-4.6
X6.28Y-4.0
X6.28Y-4.6
X6.38Y-4.0
X6.38Y-4.6
X6.48Y-4.0
X6.48Y-4.6
X6.58Y-4.0
X6.58Y-4.6
X6.68Y-4.0
X6.68Y-4.6
X6.78Y-4.0
X6.78Y-4.6
X6.88Y-4.0
X6.88Y-4.6
X6.98Y-4.0
X6.98Y-4.6
X7.08Y-4.0
X7.08Y-4.6
X7.68Y-4.95
X7.68Y-5.25
X8.14Y-4.92
X8.14Y-5.02
X8.14Y-5.12
T4
X5.5722Y-5.58
X5.71Y-5.58
X5.7466Y-3.71
X5.8478Y-5.58
X5.8844Y-3.71
X5.9856Y-5.58
X6.0222Y-3.71
X6.1234Y-5.58
X6.16Y-3.71
X6.2612Y-5.58
X6.399Y-5.58
X6.4766Y-3.71
X6.5368Y-5.58
X6.6144Y-3.71
X6.7522Y-3.71
X6.8722Y-5.58
X6.89Y-3.71
X7.01Y-5.58
X7.1478Y-5.58
X8.11Y-3.9922
X8.11Y-4.13
X8.11Y-4.4511
X8.11Y-4.5889
T0
M30
