%TF.GenerationSoftware,KiCad,Pcbnew,(7.0.0)*%
%TF.CreationDate,2023-03-14T15:58:44+01:00*%
%TF.ProjectId,ReedSensorPCB,52656564-5365-46e7-936f-725043422e6b,rev?*%
%TF.SameCoordinates,Original*%
%TF.FileFunction,Drillmap*%
%TF.FilePolarity,Positive*%
%FSLAX45Y45*%
G04 Gerber Fmt 4.5, Leading zero omitted, Abs format (unit mm)*
G04 Created by KiCad (PCBNEW (7.0.0)) date 2023-03-14 15:58:44*
%MOMM*%
%LPD*%
G01*
G04 APERTURE LIST*
%ADD10C,0.100000*%
%ADD11C,0.200000*%
%ADD12C,0.040000*%
%ADD13C,0.076200*%
%ADD14C,0.120000*%
G04 APERTURE END LIST*
D10*
X12877800Y-6019800D02*
G75*
G03*
X12954000Y-5943600I0J76200D01*
G01*
X12877800Y-7391400D02*
X12166600Y-7391400D01*
X13716000Y-5943600D02*
G75*
G03*
X12954000Y-5943600I-381000J0D01*
G01*
X13868400Y-7112000D02*
X14757400Y-7112000D01*
X14986000Y-6527800D02*
G75*
G03*
X14757400Y-6299200I-228600J0D01*
G01*
X13716000Y-6146800D02*
G75*
G03*
X13868400Y-6299200I152400J0D01*
G01*
X12954000Y-7467600D02*
G75*
G03*
X12877800Y-7391400I-76200J0D01*
G01*
X12166600Y-6019800D02*
G75*
G03*
X11938000Y-6248400I0J-228600D01*
G01*
X13868400Y-7112000D02*
G75*
G03*
X13716000Y-7264400I0J-152400D01*
G01*
X11938000Y-6248400D02*
X11938000Y-7162800D01*
X14757400Y-6299200D02*
X13868400Y-6299200D01*
X13716000Y-7264400D02*
X13716000Y-7467600D01*
X12954000Y-7467600D02*
G75*
G03*
X13716000Y-7467600I381000J0D01*
G01*
X11938000Y-7162800D02*
G75*
G03*
X12166600Y-7391400I228600J0D01*
G01*
X14757400Y-7112000D02*
G75*
G03*
X14986000Y-6883400I0J228600D01*
G01*
X13716000Y-6146800D02*
X13716000Y-5943600D01*
X12877800Y-6019800D02*
X12166600Y-6019800D01*
X14986000Y-6527800D02*
X14986000Y-6883400D01*
D11*
D12*
X12730800Y-6482400D02*
X12770800Y-6522400D01*
X12770800Y-6482400D02*
X12730800Y-6522400D01*
X12730800Y-6787200D02*
X12770800Y-6827200D01*
X12770800Y-6787200D02*
X12730800Y-6827200D01*
X13365800Y-6584000D02*
X13405800Y-6624000D01*
X13405800Y-6584000D02*
X13365800Y-6624000D01*
X13365800Y-6787200D02*
X13405800Y-6827200D01*
X13405800Y-6787200D02*
X13365800Y-6827200D01*
D13*
X13627100Y-6705600D02*
G75*
G03*
X13627100Y-6705600I-38100J0D01*
G01*
X14897100Y-6705600D02*
G75*
G03*
X14897100Y-6705600I-38100J0D01*
G01*
D14*
X12522200Y-6295600D02*
X12522200Y-6415600D01*
X12462200Y-6355600D02*
X12582200Y-6355600D01*
X12522200Y-6645600D02*
X12522200Y-6765600D01*
X12462200Y-6705600D02*
X12582200Y-6705600D01*
X12522200Y-6995600D02*
X12522200Y-7115600D01*
X12462200Y-7055600D02*
X12582200Y-7055600D01*
D11*
X12180619Y-8147076D02*
X12180619Y-7947076D01*
X12180619Y-7947076D02*
X12228238Y-7947076D01*
X12228238Y-7947076D02*
X12256809Y-7956600D01*
X12256809Y-7956600D02*
X12275857Y-7975648D01*
X12275857Y-7975648D02*
X12285381Y-7994695D01*
X12285381Y-7994695D02*
X12294905Y-8032790D01*
X12294905Y-8032790D02*
X12294905Y-8061362D01*
X12294905Y-8061362D02*
X12285381Y-8099457D01*
X12285381Y-8099457D02*
X12275857Y-8118505D01*
X12275857Y-8118505D02*
X12256809Y-8137552D01*
X12256809Y-8137552D02*
X12228238Y-8147076D01*
X12228238Y-8147076D02*
X12180619Y-8147076D01*
X12380619Y-8147076D02*
X12380619Y-8013743D01*
X12380619Y-8051838D02*
X12390143Y-8032790D01*
X12390143Y-8032790D02*
X12399667Y-8023267D01*
X12399667Y-8023267D02*
X12418714Y-8013743D01*
X12418714Y-8013743D02*
X12437762Y-8013743D01*
X12504428Y-8147076D02*
X12504428Y-8013743D01*
X12504428Y-7947076D02*
X12494905Y-7956600D01*
X12494905Y-7956600D02*
X12504428Y-7966124D01*
X12504428Y-7966124D02*
X12513952Y-7956600D01*
X12513952Y-7956600D02*
X12504428Y-7947076D01*
X12504428Y-7947076D02*
X12504428Y-7966124D01*
X12628238Y-8147076D02*
X12609190Y-8137552D01*
X12609190Y-8137552D02*
X12599667Y-8118505D01*
X12599667Y-8118505D02*
X12599667Y-7947076D01*
X12733000Y-8147076D02*
X12713952Y-8137552D01*
X12713952Y-8137552D02*
X12704428Y-8118505D01*
X12704428Y-8118505D02*
X12704428Y-7947076D01*
X12929190Y-8147076D02*
X12929190Y-7947076D01*
X12929190Y-7947076D02*
X12995857Y-8089933D01*
X12995857Y-8089933D02*
X13062524Y-7947076D01*
X13062524Y-7947076D02*
X13062524Y-8147076D01*
X13243476Y-8147076D02*
X13243476Y-8042314D01*
X13243476Y-8042314D02*
X13233952Y-8023267D01*
X13233952Y-8023267D02*
X13214905Y-8013743D01*
X13214905Y-8013743D02*
X13176809Y-8013743D01*
X13176809Y-8013743D02*
X13157762Y-8023267D01*
X13243476Y-8137552D02*
X13224428Y-8147076D01*
X13224428Y-8147076D02*
X13176809Y-8147076D01*
X13176809Y-8147076D02*
X13157762Y-8137552D01*
X13157762Y-8137552D02*
X13148238Y-8118505D01*
X13148238Y-8118505D02*
X13148238Y-8099457D01*
X13148238Y-8099457D02*
X13157762Y-8080409D01*
X13157762Y-8080409D02*
X13176809Y-8070886D01*
X13176809Y-8070886D02*
X13224428Y-8070886D01*
X13224428Y-8070886D02*
X13243476Y-8061362D01*
X13338714Y-8013743D02*
X13338714Y-8213743D01*
X13338714Y-8023267D02*
X13357762Y-8013743D01*
X13357762Y-8013743D02*
X13395857Y-8013743D01*
X13395857Y-8013743D02*
X13414905Y-8023267D01*
X13414905Y-8023267D02*
X13424428Y-8032790D01*
X13424428Y-8032790D02*
X13433952Y-8051838D01*
X13433952Y-8051838D02*
X13433952Y-8108981D01*
X13433952Y-8108981D02*
X13424428Y-8128028D01*
X13424428Y-8128028D02*
X13414905Y-8137552D01*
X13414905Y-8137552D02*
X13395857Y-8147076D01*
X13395857Y-8147076D02*
X13357762Y-8147076D01*
X13357762Y-8147076D02*
X13338714Y-8137552D01*
X13519667Y-8128028D02*
X13529190Y-8137552D01*
X13529190Y-8137552D02*
X13519667Y-8147076D01*
X13519667Y-8147076D02*
X13510143Y-8137552D01*
X13510143Y-8137552D02*
X13519667Y-8128028D01*
X13519667Y-8128028D02*
X13519667Y-8147076D01*
X13519667Y-8023267D02*
X13529190Y-8032790D01*
X13529190Y-8032790D02*
X13519667Y-8042314D01*
X13519667Y-8042314D02*
X13510143Y-8032790D01*
X13510143Y-8032790D02*
X13519667Y-8023267D01*
X13519667Y-8023267D02*
X13519667Y-8042314D01*
D12*
X11893000Y-8473600D02*
X11933000Y-8513600D01*
X11933000Y-8473600D02*
X11893000Y-8513600D01*
D11*
X12218714Y-8367076D02*
X12237762Y-8367076D01*
X12237762Y-8367076D02*
X12256809Y-8376600D01*
X12256809Y-8376600D02*
X12266333Y-8386124D01*
X12266333Y-8386124D02*
X12275857Y-8405171D01*
X12275857Y-8405171D02*
X12285381Y-8443267D01*
X12285381Y-8443267D02*
X12285381Y-8490886D01*
X12285381Y-8490886D02*
X12275857Y-8528981D01*
X12275857Y-8528981D02*
X12266333Y-8548029D01*
X12266333Y-8548029D02*
X12256809Y-8557552D01*
X12256809Y-8557552D02*
X12237762Y-8567076D01*
X12237762Y-8567076D02*
X12218714Y-8567076D01*
X12218714Y-8567076D02*
X12199667Y-8557552D01*
X12199667Y-8557552D02*
X12190143Y-8548029D01*
X12190143Y-8548029D02*
X12180619Y-8528981D01*
X12180619Y-8528981D02*
X12171095Y-8490886D01*
X12171095Y-8490886D02*
X12171095Y-8443267D01*
X12171095Y-8443267D02*
X12180619Y-8405171D01*
X12180619Y-8405171D02*
X12190143Y-8386124D01*
X12190143Y-8386124D02*
X12199667Y-8376600D01*
X12199667Y-8376600D02*
X12218714Y-8367076D01*
X12371095Y-8548029D02*
X12380619Y-8557552D01*
X12380619Y-8557552D02*
X12371095Y-8567076D01*
X12371095Y-8567076D02*
X12361571Y-8557552D01*
X12361571Y-8557552D02*
X12371095Y-8548029D01*
X12371095Y-8548029D02*
X12371095Y-8567076D01*
X12552048Y-8433743D02*
X12552048Y-8567076D01*
X12504428Y-8357552D02*
X12456809Y-8500410D01*
X12456809Y-8500410D02*
X12580619Y-8500410D01*
X12694905Y-8367076D02*
X12713952Y-8367076D01*
X12713952Y-8367076D02*
X12733000Y-8376600D01*
X12733000Y-8376600D02*
X12742524Y-8386124D01*
X12742524Y-8386124D02*
X12752048Y-8405171D01*
X12752048Y-8405171D02*
X12761571Y-8443267D01*
X12761571Y-8443267D02*
X12761571Y-8490886D01*
X12761571Y-8490886D02*
X12752048Y-8528981D01*
X12752048Y-8528981D02*
X12742524Y-8548029D01*
X12742524Y-8548029D02*
X12733000Y-8557552D01*
X12733000Y-8557552D02*
X12713952Y-8567076D01*
X12713952Y-8567076D02*
X12694905Y-8567076D01*
X12694905Y-8567076D02*
X12675857Y-8557552D01*
X12675857Y-8557552D02*
X12666333Y-8548029D01*
X12666333Y-8548029D02*
X12656809Y-8528981D01*
X12656809Y-8528981D02*
X12647286Y-8490886D01*
X12647286Y-8490886D02*
X12647286Y-8443267D01*
X12647286Y-8443267D02*
X12656809Y-8405171D01*
X12656809Y-8405171D02*
X12666333Y-8386124D01*
X12666333Y-8386124D02*
X12675857Y-8376600D01*
X12675857Y-8376600D02*
X12694905Y-8367076D01*
X12885381Y-8367076D02*
X12904429Y-8367076D01*
X12904429Y-8367076D02*
X12923476Y-8376600D01*
X12923476Y-8376600D02*
X12933000Y-8386124D01*
X12933000Y-8386124D02*
X12942524Y-8405171D01*
X12942524Y-8405171D02*
X12952048Y-8443267D01*
X12952048Y-8443267D02*
X12952048Y-8490886D01*
X12952048Y-8490886D02*
X12942524Y-8528981D01*
X12942524Y-8528981D02*
X12933000Y-8548029D01*
X12933000Y-8548029D02*
X12923476Y-8557552D01*
X12923476Y-8557552D02*
X12904429Y-8567076D01*
X12904429Y-8567076D02*
X12885381Y-8567076D01*
X12885381Y-8567076D02*
X12866333Y-8557552D01*
X12866333Y-8557552D02*
X12856809Y-8548029D01*
X12856809Y-8548029D02*
X12847286Y-8528981D01*
X12847286Y-8528981D02*
X12837762Y-8490886D01*
X12837762Y-8490886D02*
X12837762Y-8443267D01*
X12837762Y-8443267D02*
X12847286Y-8405171D01*
X12847286Y-8405171D02*
X12856809Y-8386124D01*
X12856809Y-8386124D02*
X12866333Y-8376600D01*
X12866333Y-8376600D02*
X12885381Y-8367076D01*
X13037762Y-8567076D02*
X13037762Y-8433743D01*
X13037762Y-8452790D02*
X13047286Y-8443267D01*
X13047286Y-8443267D02*
X13066333Y-8433743D01*
X13066333Y-8433743D02*
X13094905Y-8433743D01*
X13094905Y-8433743D02*
X13113952Y-8443267D01*
X13113952Y-8443267D02*
X13123476Y-8462314D01*
X13123476Y-8462314D02*
X13123476Y-8567076D01*
X13123476Y-8462314D02*
X13133000Y-8443267D01*
X13133000Y-8443267D02*
X13152048Y-8433743D01*
X13152048Y-8433743D02*
X13180619Y-8433743D01*
X13180619Y-8433743D02*
X13199667Y-8443267D01*
X13199667Y-8443267D02*
X13209190Y-8462314D01*
X13209190Y-8462314D02*
X13209190Y-8567076D01*
X13304429Y-8567076D02*
X13304429Y-8433743D01*
X13304429Y-8452790D02*
X13313952Y-8443267D01*
X13313952Y-8443267D02*
X13333000Y-8433743D01*
X13333000Y-8433743D02*
X13361571Y-8433743D01*
X13361571Y-8433743D02*
X13380619Y-8443267D01*
X13380619Y-8443267D02*
X13390143Y-8462314D01*
X13390143Y-8462314D02*
X13390143Y-8567076D01*
X13390143Y-8462314D02*
X13399667Y-8443267D01*
X13399667Y-8443267D02*
X13418714Y-8433743D01*
X13418714Y-8433743D02*
X13447286Y-8433743D01*
X13447286Y-8433743D02*
X13466333Y-8443267D01*
X13466333Y-8443267D02*
X13475857Y-8462314D01*
X13475857Y-8462314D02*
X13475857Y-8567076D01*
X13833952Y-8357552D02*
X13662524Y-8614695D01*
X14058714Y-8367076D02*
X14077762Y-8367076D01*
X14077762Y-8367076D02*
X14096810Y-8376600D01*
X14096810Y-8376600D02*
X14106333Y-8386124D01*
X14106333Y-8386124D02*
X14115857Y-8405171D01*
X14115857Y-8405171D02*
X14125381Y-8443267D01*
X14125381Y-8443267D02*
X14125381Y-8490886D01*
X14125381Y-8490886D02*
X14115857Y-8528981D01*
X14115857Y-8528981D02*
X14106333Y-8548029D01*
X14106333Y-8548029D02*
X14096810Y-8557552D01*
X14096810Y-8557552D02*
X14077762Y-8567076D01*
X14077762Y-8567076D02*
X14058714Y-8567076D01*
X14058714Y-8567076D02*
X14039667Y-8557552D01*
X14039667Y-8557552D02*
X14030143Y-8548029D01*
X14030143Y-8548029D02*
X14020619Y-8528981D01*
X14020619Y-8528981D02*
X14011095Y-8490886D01*
X14011095Y-8490886D02*
X14011095Y-8443267D01*
X14011095Y-8443267D02*
X14020619Y-8405171D01*
X14020619Y-8405171D02*
X14030143Y-8386124D01*
X14030143Y-8386124D02*
X14039667Y-8376600D01*
X14039667Y-8376600D02*
X14058714Y-8367076D01*
X14211095Y-8548029D02*
X14220619Y-8557552D01*
X14220619Y-8557552D02*
X14211095Y-8567076D01*
X14211095Y-8567076D02*
X14201571Y-8557552D01*
X14201571Y-8557552D02*
X14211095Y-8548029D01*
X14211095Y-8548029D02*
X14211095Y-8567076D01*
X14344429Y-8367076D02*
X14363476Y-8367076D01*
X14363476Y-8367076D02*
X14382524Y-8376600D01*
X14382524Y-8376600D02*
X14392048Y-8386124D01*
X14392048Y-8386124D02*
X14401571Y-8405171D01*
X14401571Y-8405171D02*
X14411095Y-8443267D01*
X14411095Y-8443267D02*
X14411095Y-8490886D01*
X14411095Y-8490886D02*
X14401571Y-8528981D01*
X14401571Y-8528981D02*
X14392048Y-8548029D01*
X14392048Y-8548029D02*
X14382524Y-8557552D01*
X14382524Y-8557552D02*
X14363476Y-8567076D01*
X14363476Y-8567076D02*
X14344429Y-8567076D01*
X14344429Y-8567076D02*
X14325381Y-8557552D01*
X14325381Y-8557552D02*
X14315857Y-8548029D01*
X14315857Y-8548029D02*
X14306333Y-8528981D01*
X14306333Y-8528981D02*
X14296810Y-8490886D01*
X14296810Y-8490886D02*
X14296810Y-8443267D01*
X14296810Y-8443267D02*
X14306333Y-8405171D01*
X14306333Y-8405171D02*
X14315857Y-8386124D01*
X14315857Y-8386124D02*
X14325381Y-8376600D01*
X14325381Y-8376600D02*
X14344429Y-8367076D01*
X14601571Y-8567076D02*
X14487286Y-8567076D01*
X14544429Y-8567076D02*
X14544429Y-8367076D01*
X14544429Y-8367076D02*
X14525381Y-8395648D01*
X14525381Y-8395648D02*
X14506333Y-8414695D01*
X14506333Y-8414695D02*
X14487286Y-8424219D01*
X14782524Y-8367076D02*
X14687286Y-8367076D01*
X14687286Y-8367076D02*
X14677762Y-8462314D01*
X14677762Y-8462314D02*
X14687286Y-8452790D01*
X14687286Y-8452790D02*
X14706333Y-8443267D01*
X14706333Y-8443267D02*
X14753952Y-8443267D01*
X14753952Y-8443267D02*
X14773000Y-8452790D01*
X14773000Y-8452790D02*
X14782524Y-8462314D01*
X14782524Y-8462314D02*
X14792048Y-8481362D01*
X14792048Y-8481362D02*
X14792048Y-8528981D01*
X14792048Y-8528981D02*
X14782524Y-8548029D01*
X14782524Y-8548029D02*
X14773000Y-8557552D01*
X14773000Y-8557552D02*
X14753952Y-8567076D01*
X14753952Y-8567076D02*
X14706333Y-8567076D01*
X14706333Y-8567076D02*
X14687286Y-8557552D01*
X14687286Y-8557552D02*
X14677762Y-8548029D01*
X14858714Y-8367076D02*
X14992048Y-8367076D01*
X14992048Y-8367076D02*
X14906333Y-8567076D01*
X15058714Y-8367076D02*
X15058714Y-8405171D01*
X15134905Y-8367076D02*
X15134905Y-8405171D01*
X15397762Y-8643267D02*
X15388238Y-8633743D01*
X15388238Y-8633743D02*
X15369191Y-8605171D01*
X15369191Y-8605171D02*
X15359667Y-8586124D01*
X15359667Y-8586124D02*
X15350143Y-8557552D01*
X15350143Y-8557552D02*
X15340619Y-8509933D01*
X15340619Y-8509933D02*
X15340619Y-8471838D01*
X15340619Y-8471838D02*
X15350143Y-8424219D01*
X15350143Y-8424219D02*
X15359667Y-8395648D01*
X15359667Y-8395648D02*
X15369191Y-8376600D01*
X15369191Y-8376600D02*
X15388238Y-8348028D01*
X15388238Y-8348028D02*
X15397762Y-8338505D01*
X15559667Y-8433743D02*
X15559667Y-8567076D01*
X15512048Y-8357552D02*
X15464429Y-8500410D01*
X15464429Y-8500410D02*
X15588238Y-8500410D01*
X15784429Y-8567076D02*
X15784429Y-8367076D01*
X15870143Y-8567076D02*
X15870143Y-8462314D01*
X15870143Y-8462314D02*
X15860619Y-8443267D01*
X15860619Y-8443267D02*
X15841572Y-8433743D01*
X15841572Y-8433743D02*
X15813000Y-8433743D01*
X15813000Y-8433743D02*
X15793952Y-8443267D01*
X15793952Y-8443267D02*
X15784429Y-8452790D01*
X15993952Y-8567076D02*
X15974905Y-8557552D01*
X15974905Y-8557552D02*
X15965381Y-8548029D01*
X15965381Y-8548029D02*
X15955857Y-8528981D01*
X15955857Y-8528981D02*
X15955857Y-8471838D01*
X15955857Y-8471838D02*
X15965381Y-8452790D01*
X15965381Y-8452790D02*
X15974905Y-8443267D01*
X15974905Y-8443267D02*
X15993952Y-8433743D01*
X15993952Y-8433743D02*
X16022524Y-8433743D01*
X16022524Y-8433743D02*
X16041572Y-8443267D01*
X16041572Y-8443267D02*
X16051095Y-8452790D01*
X16051095Y-8452790D02*
X16060619Y-8471838D01*
X16060619Y-8471838D02*
X16060619Y-8528981D01*
X16060619Y-8528981D02*
X16051095Y-8548029D01*
X16051095Y-8548029D02*
X16041572Y-8557552D01*
X16041572Y-8557552D02*
X16022524Y-8567076D01*
X16022524Y-8567076D02*
X15993952Y-8567076D01*
X16174905Y-8567076D02*
X16155857Y-8557552D01*
X16155857Y-8557552D02*
X16146333Y-8538505D01*
X16146333Y-8538505D02*
X16146333Y-8367076D01*
X16327286Y-8557552D02*
X16308238Y-8567076D01*
X16308238Y-8567076D02*
X16270143Y-8567076D01*
X16270143Y-8567076D02*
X16251095Y-8557552D01*
X16251095Y-8557552D02*
X16241572Y-8538505D01*
X16241572Y-8538505D02*
X16241572Y-8462314D01*
X16241572Y-8462314D02*
X16251095Y-8443267D01*
X16251095Y-8443267D02*
X16270143Y-8433743D01*
X16270143Y-8433743D02*
X16308238Y-8433743D01*
X16308238Y-8433743D02*
X16327286Y-8443267D01*
X16327286Y-8443267D02*
X16336810Y-8462314D01*
X16336810Y-8462314D02*
X16336810Y-8481362D01*
X16336810Y-8481362D02*
X16241572Y-8500410D01*
X16413000Y-8557552D02*
X16432048Y-8567076D01*
X16432048Y-8567076D02*
X16470143Y-8567076D01*
X16470143Y-8567076D02*
X16489191Y-8557552D01*
X16489191Y-8557552D02*
X16498714Y-8538505D01*
X16498714Y-8538505D02*
X16498714Y-8528981D01*
X16498714Y-8528981D02*
X16489191Y-8509933D01*
X16489191Y-8509933D02*
X16470143Y-8500410D01*
X16470143Y-8500410D02*
X16441572Y-8500410D01*
X16441572Y-8500410D02*
X16422524Y-8490886D01*
X16422524Y-8490886D02*
X16413000Y-8471838D01*
X16413000Y-8471838D02*
X16413000Y-8462314D01*
X16413000Y-8462314D02*
X16422524Y-8443267D01*
X16422524Y-8443267D02*
X16441572Y-8433743D01*
X16441572Y-8433743D02*
X16470143Y-8433743D01*
X16470143Y-8433743D02*
X16489191Y-8443267D01*
X16565381Y-8643267D02*
X16574905Y-8633743D01*
X16574905Y-8633743D02*
X16593953Y-8605171D01*
X16593953Y-8605171D02*
X16603476Y-8586124D01*
X16603476Y-8586124D02*
X16613000Y-8557552D01*
X16613000Y-8557552D02*
X16622524Y-8509933D01*
X16622524Y-8509933D02*
X16622524Y-8471838D01*
X16622524Y-8471838D02*
X16613000Y-8424219D01*
X16613000Y-8424219D02*
X16603476Y-8395648D01*
X16603476Y-8395648D02*
X16593953Y-8376600D01*
X16593953Y-8376600D02*
X16574905Y-8348028D01*
X16574905Y-8348028D02*
X16565381Y-8338505D01*
D13*
X11933000Y-8757600D02*
G75*
G03*
X11933000Y-8757600I-38100J0D01*
G01*
D11*
X12218714Y-8631076D02*
X12237762Y-8631076D01*
X12237762Y-8631076D02*
X12256809Y-8640600D01*
X12256809Y-8640600D02*
X12266333Y-8650124D01*
X12266333Y-8650124D02*
X12275857Y-8669171D01*
X12275857Y-8669171D02*
X12285381Y-8707267D01*
X12285381Y-8707267D02*
X12285381Y-8754886D01*
X12285381Y-8754886D02*
X12275857Y-8792981D01*
X12275857Y-8792981D02*
X12266333Y-8812029D01*
X12266333Y-8812029D02*
X12256809Y-8821552D01*
X12256809Y-8821552D02*
X12237762Y-8831076D01*
X12237762Y-8831076D02*
X12218714Y-8831076D01*
X12218714Y-8831076D02*
X12199667Y-8821552D01*
X12199667Y-8821552D02*
X12190143Y-8812029D01*
X12190143Y-8812029D02*
X12180619Y-8792981D01*
X12180619Y-8792981D02*
X12171095Y-8754886D01*
X12171095Y-8754886D02*
X12171095Y-8707267D01*
X12171095Y-8707267D02*
X12180619Y-8669171D01*
X12180619Y-8669171D02*
X12190143Y-8650124D01*
X12190143Y-8650124D02*
X12199667Y-8640600D01*
X12199667Y-8640600D02*
X12218714Y-8631076D01*
X12371095Y-8812029D02*
X12380619Y-8821552D01*
X12380619Y-8821552D02*
X12371095Y-8831076D01*
X12371095Y-8831076D02*
X12361571Y-8821552D01*
X12361571Y-8821552D02*
X12371095Y-8812029D01*
X12371095Y-8812029D02*
X12371095Y-8831076D01*
X12447286Y-8631076D02*
X12580619Y-8631076D01*
X12580619Y-8631076D02*
X12494905Y-8831076D01*
X12742524Y-8631076D02*
X12704428Y-8631076D01*
X12704428Y-8631076D02*
X12685381Y-8640600D01*
X12685381Y-8640600D02*
X12675857Y-8650124D01*
X12675857Y-8650124D02*
X12656809Y-8678695D01*
X12656809Y-8678695D02*
X12647286Y-8716790D01*
X12647286Y-8716790D02*
X12647286Y-8792981D01*
X12647286Y-8792981D02*
X12656809Y-8812029D01*
X12656809Y-8812029D02*
X12666333Y-8821552D01*
X12666333Y-8821552D02*
X12685381Y-8831076D01*
X12685381Y-8831076D02*
X12723476Y-8831076D01*
X12723476Y-8831076D02*
X12742524Y-8821552D01*
X12742524Y-8821552D02*
X12752048Y-8812029D01*
X12752048Y-8812029D02*
X12761571Y-8792981D01*
X12761571Y-8792981D02*
X12761571Y-8745362D01*
X12761571Y-8745362D02*
X12752048Y-8726314D01*
X12752048Y-8726314D02*
X12742524Y-8716790D01*
X12742524Y-8716790D02*
X12723476Y-8707267D01*
X12723476Y-8707267D02*
X12685381Y-8707267D01*
X12685381Y-8707267D02*
X12666333Y-8716790D01*
X12666333Y-8716790D02*
X12656809Y-8726314D01*
X12656809Y-8726314D02*
X12647286Y-8745362D01*
X12837762Y-8650124D02*
X12847286Y-8640600D01*
X12847286Y-8640600D02*
X12866333Y-8631076D01*
X12866333Y-8631076D02*
X12913952Y-8631076D01*
X12913952Y-8631076D02*
X12933000Y-8640600D01*
X12933000Y-8640600D02*
X12942524Y-8650124D01*
X12942524Y-8650124D02*
X12952048Y-8669171D01*
X12952048Y-8669171D02*
X12952048Y-8688219D01*
X12952048Y-8688219D02*
X12942524Y-8716790D01*
X12942524Y-8716790D02*
X12828238Y-8831076D01*
X12828238Y-8831076D02*
X12952048Y-8831076D01*
X13037762Y-8831076D02*
X13037762Y-8697743D01*
X13037762Y-8716790D02*
X13047286Y-8707267D01*
X13047286Y-8707267D02*
X13066333Y-8697743D01*
X13066333Y-8697743D02*
X13094905Y-8697743D01*
X13094905Y-8697743D02*
X13113952Y-8707267D01*
X13113952Y-8707267D02*
X13123476Y-8726314D01*
X13123476Y-8726314D02*
X13123476Y-8831076D01*
X13123476Y-8726314D02*
X13133000Y-8707267D01*
X13133000Y-8707267D02*
X13152048Y-8697743D01*
X13152048Y-8697743D02*
X13180619Y-8697743D01*
X13180619Y-8697743D02*
X13199667Y-8707267D01*
X13199667Y-8707267D02*
X13209190Y-8726314D01*
X13209190Y-8726314D02*
X13209190Y-8831076D01*
X13304429Y-8831076D02*
X13304429Y-8697743D01*
X13304429Y-8716790D02*
X13313952Y-8707267D01*
X13313952Y-8707267D02*
X13333000Y-8697743D01*
X13333000Y-8697743D02*
X13361571Y-8697743D01*
X13361571Y-8697743D02*
X13380619Y-8707267D01*
X13380619Y-8707267D02*
X13390143Y-8726314D01*
X13390143Y-8726314D02*
X13390143Y-8831076D01*
X13390143Y-8726314D02*
X13399667Y-8707267D01*
X13399667Y-8707267D02*
X13418714Y-8697743D01*
X13418714Y-8697743D02*
X13447286Y-8697743D01*
X13447286Y-8697743D02*
X13466333Y-8707267D01*
X13466333Y-8707267D02*
X13475857Y-8726314D01*
X13475857Y-8726314D02*
X13475857Y-8831076D01*
X13833952Y-8621552D02*
X13662524Y-8878695D01*
X14058714Y-8631076D02*
X14077762Y-8631076D01*
X14077762Y-8631076D02*
X14096810Y-8640600D01*
X14096810Y-8640600D02*
X14106333Y-8650124D01*
X14106333Y-8650124D02*
X14115857Y-8669171D01*
X14115857Y-8669171D02*
X14125381Y-8707267D01*
X14125381Y-8707267D02*
X14125381Y-8754886D01*
X14125381Y-8754886D02*
X14115857Y-8792981D01*
X14115857Y-8792981D02*
X14106333Y-8812029D01*
X14106333Y-8812029D02*
X14096810Y-8821552D01*
X14096810Y-8821552D02*
X14077762Y-8831076D01*
X14077762Y-8831076D02*
X14058714Y-8831076D01*
X14058714Y-8831076D02*
X14039667Y-8821552D01*
X14039667Y-8821552D02*
X14030143Y-8812029D01*
X14030143Y-8812029D02*
X14020619Y-8792981D01*
X14020619Y-8792981D02*
X14011095Y-8754886D01*
X14011095Y-8754886D02*
X14011095Y-8707267D01*
X14011095Y-8707267D02*
X14020619Y-8669171D01*
X14020619Y-8669171D02*
X14030143Y-8650124D01*
X14030143Y-8650124D02*
X14039667Y-8640600D01*
X14039667Y-8640600D02*
X14058714Y-8631076D01*
X14211095Y-8812029D02*
X14220619Y-8821552D01*
X14220619Y-8821552D02*
X14211095Y-8831076D01*
X14211095Y-8831076D02*
X14201571Y-8821552D01*
X14201571Y-8821552D02*
X14211095Y-8812029D01*
X14211095Y-8812029D02*
X14211095Y-8831076D01*
X14344429Y-8631076D02*
X14363476Y-8631076D01*
X14363476Y-8631076D02*
X14382524Y-8640600D01*
X14382524Y-8640600D02*
X14392048Y-8650124D01*
X14392048Y-8650124D02*
X14401571Y-8669171D01*
X14401571Y-8669171D02*
X14411095Y-8707267D01*
X14411095Y-8707267D02*
X14411095Y-8754886D01*
X14411095Y-8754886D02*
X14401571Y-8792981D01*
X14401571Y-8792981D02*
X14392048Y-8812029D01*
X14392048Y-8812029D02*
X14382524Y-8821552D01*
X14382524Y-8821552D02*
X14363476Y-8831076D01*
X14363476Y-8831076D02*
X14344429Y-8831076D01*
X14344429Y-8831076D02*
X14325381Y-8821552D01*
X14325381Y-8821552D02*
X14315857Y-8812029D01*
X14315857Y-8812029D02*
X14306333Y-8792981D01*
X14306333Y-8792981D02*
X14296810Y-8754886D01*
X14296810Y-8754886D02*
X14296810Y-8707267D01*
X14296810Y-8707267D02*
X14306333Y-8669171D01*
X14306333Y-8669171D02*
X14315857Y-8650124D01*
X14315857Y-8650124D02*
X14325381Y-8640600D01*
X14325381Y-8640600D02*
X14344429Y-8631076D01*
X14477762Y-8631076D02*
X14601571Y-8631076D01*
X14601571Y-8631076D02*
X14534905Y-8707267D01*
X14534905Y-8707267D02*
X14563476Y-8707267D01*
X14563476Y-8707267D02*
X14582524Y-8716790D01*
X14582524Y-8716790D02*
X14592048Y-8726314D01*
X14592048Y-8726314D02*
X14601571Y-8745362D01*
X14601571Y-8745362D02*
X14601571Y-8792981D01*
X14601571Y-8792981D02*
X14592048Y-8812029D01*
X14592048Y-8812029D02*
X14582524Y-8821552D01*
X14582524Y-8821552D02*
X14563476Y-8831076D01*
X14563476Y-8831076D02*
X14506333Y-8831076D01*
X14506333Y-8831076D02*
X14487286Y-8821552D01*
X14487286Y-8821552D02*
X14477762Y-8812029D01*
X14725381Y-8631076D02*
X14744429Y-8631076D01*
X14744429Y-8631076D02*
X14763476Y-8640600D01*
X14763476Y-8640600D02*
X14773000Y-8650124D01*
X14773000Y-8650124D02*
X14782524Y-8669171D01*
X14782524Y-8669171D02*
X14792048Y-8707267D01*
X14792048Y-8707267D02*
X14792048Y-8754886D01*
X14792048Y-8754886D02*
X14782524Y-8792981D01*
X14782524Y-8792981D02*
X14773000Y-8812029D01*
X14773000Y-8812029D02*
X14763476Y-8821552D01*
X14763476Y-8821552D02*
X14744429Y-8831076D01*
X14744429Y-8831076D02*
X14725381Y-8831076D01*
X14725381Y-8831076D02*
X14706333Y-8821552D01*
X14706333Y-8821552D02*
X14696810Y-8812029D01*
X14696810Y-8812029D02*
X14687286Y-8792981D01*
X14687286Y-8792981D02*
X14677762Y-8754886D01*
X14677762Y-8754886D02*
X14677762Y-8707267D01*
X14677762Y-8707267D02*
X14687286Y-8669171D01*
X14687286Y-8669171D02*
X14696810Y-8650124D01*
X14696810Y-8650124D02*
X14706333Y-8640600D01*
X14706333Y-8640600D02*
X14725381Y-8631076D01*
X14915857Y-8631076D02*
X14934905Y-8631076D01*
X14934905Y-8631076D02*
X14953952Y-8640600D01*
X14953952Y-8640600D02*
X14963476Y-8650124D01*
X14963476Y-8650124D02*
X14973000Y-8669171D01*
X14973000Y-8669171D02*
X14982524Y-8707267D01*
X14982524Y-8707267D02*
X14982524Y-8754886D01*
X14982524Y-8754886D02*
X14973000Y-8792981D01*
X14973000Y-8792981D02*
X14963476Y-8812029D01*
X14963476Y-8812029D02*
X14953952Y-8821552D01*
X14953952Y-8821552D02*
X14934905Y-8831076D01*
X14934905Y-8831076D02*
X14915857Y-8831076D01*
X14915857Y-8831076D02*
X14896810Y-8821552D01*
X14896810Y-8821552D02*
X14887286Y-8812029D01*
X14887286Y-8812029D02*
X14877762Y-8792981D01*
X14877762Y-8792981D02*
X14868238Y-8754886D01*
X14868238Y-8754886D02*
X14868238Y-8707267D01*
X14868238Y-8707267D02*
X14877762Y-8669171D01*
X14877762Y-8669171D02*
X14887286Y-8650124D01*
X14887286Y-8650124D02*
X14896810Y-8640600D01*
X14896810Y-8640600D02*
X14915857Y-8631076D01*
X15058714Y-8631076D02*
X15058714Y-8669171D01*
X15134905Y-8631076D02*
X15134905Y-8669171D01*
X15397762Y-8907267D02*
X15388238Y-8897743D01*
X15388238Y-8897743D02*
X15369191Y-8869171D01*
X15369191Y-8869171D02*
X15359667Y-8850124D01*
X15359667Y-8850124D02*
X15350143Y-8821552D01*
X15350143Y-8821552D02*
X15340619Y-8773933D01*
X15340619Y-8773933D02*
X15340619Y-8735838D01*
X15340619Y-8735838D02*
X15350143Y-8688219D01*
X15350143Y-8688219D02*
X15359667Y-8659648D01*
X15359667Y-8659648D02*
X15369191Y-8640600D01*
X15369191Y-8640600D02*
X15388238Y-8612029D01*
X15388238Y-8612029D02*
X15397762Y-8602505D01*
X15464429Y-8650124D02*
X15473952Y-8640600D01*
X15473952Y-8640600D02*
X15493000Y-8631076D01*
X15493000Y-8631076D02*
X15540619Y-8631076D01*
X15540619Y-8631076D02*
X15559667Y-8640600D01*
X15559667Y-8640600D02*
X15569191Y-8650124D01*
X15569191Y-8650124D02*
X15578714Y-8669171D01*
X15578714Y-8669171D02*
X15578714Y-8688219D01*
X15578714Y-8688219D02*
X15569191Y-8716790D01*
X15569191Y-8716790D02*
X15454905Y-8831076D01*
X15454905Y-8831076D02*
X15578714Y-8831076D01*
X15784429Y-8831076D02*
X15784429Y-8631076D01*
X15870143Y-8831076D02*
X15870143Y-8726314D01*
X15870143Y-8726314D02*
X15860619Y-8707267D01*
X15860619Y-8707267D02*
X15841572Y-8697743D01*
X15841572Y-8697743D02*
X15813000Y-8697743D01*
X15813000Y-8697743D02*
X15793952Y-8707267D01*
X15793952Y-8707267D02*
X15784429Y-8716790D01*
X15993952Y-8831076D02*
X15974905Y-8821552D01*
X15974905Y-8821552D02*
X15965381Y-8812029D01*
X15965381Y-8812029D02*
X15955857Y-8792981D01*
X15955857Y-8792981D02*
X15955857Y-8735838D01*
X15955857Y-8735838D02*
X15965381Y-8716790D01*
X15965381Y-8716790D02*
X15974905Y-8707267D01*
X15974905Y-8707267D02*
X15993952Y-8697743D01*
X15993952Y-8697743D02*
X16022524Y-8697743D01*
X16022524Y-8697743D02*
X16041572Y-8707267D01*
X16041572Y-8707267D02*
X16051095Y-8716790D01*
X16051095Y-8716790D02*
X16060619Y-8735838D01*
X16060619Y-8735838D02*
X16060619Y-8792981D01*
X16060619Y-8792981D02*
X16051095Y-8812029D01*
X16051095Y-8812029D02*
X16041572Y-8821552D01*
X16041572Y-8821552D02*
X16022524Y-8831076D01*
X16022524Y-8831076D02*
X15993952Y-8831076D01*
X16174905Y-8831076D02*
X16155857Y-8821552D01*
X16155857Y-8821552D02*
X16146333Y-8802505D01*
X16146333Y-8802505D02*
X16146333Y-8631076D01*
X16327286Y-8821552D02*
X16308238Y-8831076D01*
X16308238Y-8831076D02*
X16270143Y-8831076D01*
X16270143Y-8831076D02*
X16251095Y-8821552D01*
X16251095Y-8821552D02*
X16241572Y-8802505D01*
X16241572Y-8802505D02*
X16241572Y-8726314D01*
X16241572Y-8726314D02*
X16251095Y-8707267D01*
X16251095Y-8707267D02*
X16270143Y-8697743D01*
X16270143Y-8697743D02*
X16308238Y-8697743D01*
X16308238Y-8697743D02*
X16327286Y-8707267D01*
X16327286Y-8707267D02*
X16336810Y-8726314D01*
X16336810Y-8726314D02*
X16336810Y-8745362D01*
X16336810Y-8745362D02*
X16241572Y-8764410D01*
X16413000Y-8821552D02*
X16432048Y-8831076D01*
X16432048Y-8831076D02*
X16470143Y-8831076D01*
X16470143Y-8831076D02*
X16489191Y-8821552D01*
X16489191Y-8821552D02*
X16498714Y-8802505D01*
X16498714Y-8802505D02*
X16498714Y-8792981D01*
X16498714Y-8792981D02*
X16489191Y-8773933D01*
X16489191Y-8773933D02*
X16470143Y-8764410D01*
X16470143Y-8764410D02*
X16441572Y-8764410D01*
X16441572Y-8764410D02*
X16422524Y-8754886D01*
X16422524Y-8754886D02*
X16413000Y-8735838D01*
X16413000Y-8735838D02*
X16413000Y-8726314D01*
X16413000Y-8726314D02*
X16422524Y-8707267D01*
X16422524Y-8707267D02*
X16441572Y-8697743D01*
X16441572Y-8697743D02*
X16470143Y-8697743D01*
X16470143Y-8697743D02*
X16489191Y-8707267D01*
X16565381Y-8907267D02*
X16574905Y-8897743D01*
X16574905Y-8897743D02*
X16593953Y-8869171D01*
X16593953Y-8869171D02*
X16603476Y-8850124D01*
X16603476Y-8850124D02*
X16613000Y-8821552D01*
X16613000Y-8821552D02*
X16622524Y-8773933D01*
X16622524Y-8773933D02*
X16622524Y-8735838D01*
X16622524Y-8735838D02*
X16613000Y-8688219D01*
X16613000Y-8688219D02*
X16603476Y-8659648D01*
X16603476Y-8659648D02*
X16593953Y-8640600D01*
X16593953Y-8640600D02*
X16574905Y-8612029D01*
X16574905Y-8612029D02*
X16565381Y-8602505D01*
D14*
X11873000Y-8961600D02*
X11873000Y-9081600D01*
X11813000Y-9021600D02*
X11933000Y-9021600D01*
D11*
X12285381Y-9095076D02*
X12171095Y-9095076D01*
X12228238Y-9095076D02*
X12228238Y-8895076D01*
X12228238Y-8895076D02*
X12209190Y-8923648D01*
X12209190Y-8923648D02*
X12190143Y-8942695D01*
X12190143Y-8942695D02*
X12171095Y-8952219D01*
X12371095Y-9076029D02*
X12380619Y-9085552D01*
X12380619Y-9085552D02*
X12371095Y-9095076D01*
X12371095Y-9095076D02*
X12361571Y-9085552D01*
X12361571Y-9085552D02*
X12371095Y-9076029D01*
X12371095Y-9076029D02*
X12371095Y-9095076D01*
X12456809Y-8914124D02*
X12466333Y-8904600D01*
X12466333Y-8904600D02*
X12485381Y-8895076D01*
X12485381Y-8895076D02*
X12533000Y-8895076D01*
X12533000Y-8895076D02*
X12552048Y-8904600D01*
X12552048Y-8904600D02*
X12561571Y-8914124D01*
X12561571Y-8914124D02*
X12571095Y-8933171D01*
X12571095Y-8933171D02*
X12571095Y-8952219D01*
X12571095Y-8952219D02*
X12561571Y-8980790D01*
X12561571Y-8980790D02*
X12447286Y-9095076D01*
X12447286Y-9095076D02*
X12571095Y-9095076D01*
X12694905Y-8895076D02*
X12713952Y-8895076D01*
X12713952Y-8895076D02*
X12733000Y-8904600D01*
X12733000Y-8904600D02*
X12742524Y-8914124D01*
X12742524Y-8914124D02*
X12752048Y-8933171D01*
X12752048Y-8933171D02*
X12761571Y-8971267D01*
X12761571Y-8971267D02*
X12761571Y-9018886D01*
X12761571Y-9018886D02*
X12752048Y-9056981D01*
X12752048Y-9056981D02*
X12742524Y-9076029D01*
X12742524Y-9076029D02*
X12733000Y-9085552D01*
X12733000Y-9085552D02*
X12713952Y-9095076D01*
X12713952Y-9095076D02*
X12694905Y-9095076D01*
X12694905Y-9095076D02*
X12675857Y-9085552D01*
X12675857Y-9085552D02*
X12666333Y-9076029D01*
X12666333Y-9076029D02*
X12656809Y-9056981D01*
X12656809Y-9056981D02*
X12647286Y-9018886D01*
X12647286Y-9018886D02*
X12647286Y-8971267D01*
X12647286Y-8971267D02*
X12656809Y-8933171D01*
X12656809Y-8933171D02*
X12666333Y-8914124D01*
X12666333Y-8914124D02*
X12675857Y-8904600D01*
X12675857Y-8904600D02*
X12694905Y-8895076D01*
X12885381Y-8895076D02*
X12904429Y-8895076D01*
X12904429Y-8895076D02*
X12923476Y-8904600D01*
X12923476Y-8904600D02*
X12933000Y-8914124D01*
X12933000Y-8914124D02*
X12942524Y-8933171D01*
X12942524Y-8933171D02*
X12952048Y-8971267D01*
X12952048Y-8971267D02*
X12952048Y-9018886D01*
X12952048Y-9018886D02*
X12942524Y-9056981D01*
X12942524Y-9056981D02*
X12933000Y-9076029D01*
X12933000Y-9076029D02*
X12923476Y-9085552D01*
X12923476Y-9085552D02*
X12904429Y-9095076D01*
X12904429Y-9095076D02*
X12885381Y-9095076D01*
X12885381Y-9095076D02*
X12866333Y-9085552D01*
X12866333Y-9085552D02*
X12856809Y-9076029D01*
X12856809Y-9076029D02*
X12847286Y-9056981D01*
X12847286Y-9056981D02*
X12837762Y-9018886D01*
X12837762Y-9018886D02*
X12837762Y-8971267D01*
X12837762Y-8971267D02*
X12847286Y-8933171D01*
X12847286Y-8933171D02*
X12856809Y-8914124D01*
X12856809Y-8914124D02*
X12866333Y-8904600D01*
X12866333Y-8904600D02*
X12885381Y-8895076D01*
X13037762Y-9095076D02*
X13037762Y-8961743D01*
X13037762Y-8980790D02*
X13047286Y-8971267D01*
X13047286Y-8971267D02*
X13066333Y-8961743D01*
X13066333Y-8961743D02*
X13094905Y-8961743D01*
X13094905Y-8961743D02*
X13113952Y-8971267D01*
X13113952Y-8971267D02*
X13123476Y-8990314D01*
X13123476Y-8990314D02*
X13123476Y-9095076D01*
X13123476Y-8990314D02*
X13133000Y-8971267D01*
X13133000Y-8971267D02*
X13152048Y-8961743D01*
X13152048Y-8961743D02*
X13180619Y-8961743D01*
X13180619Y-8961743D02*
X13199667Y-8971267D01*
X13199667Y-8971267D02*
X13209190Y-8990314D01*
X13209190Y-8990314D02*
X13209190Y-9095076D01*
X13304429Y-9095076D02*
X13304429Y-8961743D01*
X13304429Y-8980790D02*
X13313952Y-8971267D01*
X13313952Y-8971267D02*
X13333000Y-8961743D01*
X13333000Y-8961743D02*
X13361571Y-8961743D01*
X13361571Y-8961743D02*
X13380619Y-8971267D01*
X13380619Y-8971267D02*
X13390143Y-8990314D01*
X13390143Y-8990314D02*
X13390143Y-9095076D01*
X13390143Y-8990314D02*
X13399667Y-8971267D01*
X13399667Y-8971267D02*
X13418714Y-8961743D01*
X13418714Y-8961743D02*
X13447286Y-8961743D01*
X13447286Y-8961743D02*
X13466333Y-8971267D01*
X13466333Y-8971267D02*
X13475857Y-8990314D01*
X13475857Y-8990314D02*
X13475857Y-9095076D01*
X13833952Y-8885552D02*
X13662524Y-9142695D01*
X14058714Y-8895076D02*
X14077762Y-8895076D01*
X14077762Y-8895076D02*
X14096810Y-8904600D01*
X14096810Y-8904600D02*
X14106333Y-8914124D01*
X14106333Y-8914124D02*
X14115857Y-8933171D01*
X14115857Y-8933171D02*
X14125381Y-8971267D01*
X14125381Y-8971267D02*
X14125381Y-9018886D01*
X14125381Y-9018886D02*
X14115857Y-9056981D01*
X14115857Y-9056981D02*
X14106333Y-9076029D01*
X14106333Y-9076029D02*
X14096810Y-9085552D01*
X14096810Y-9085552D02*
X14077762Y-9095076D01*
X14077762Y-9095076D02*
X14058714Y-9095076D01*
X14058714Y-9095076D02*
X14039667Y-9085552D01*
X14039667Y-9085552D02*
X14030143Y-9076029D01*
X14030143Y-9076029D02*
X14020619Y-9056981D01*
X14020619Y-9056981D02*
X14011095Y-9018886D01*
X14011095Y-9018886D02*
X14011095Y-8971267D01*
X14011095Y-8971267D02*
X14020619Y-8933171D01*
X14020619Y-8933171D02*
X14030143Y-8914124D01*
X14030143Y-8914124D02*
X14039667Y-8904600D01*
X14039667Y-8904600D02*
X14058714Y-8895076D01*
X14211095Y-9076029D02*
X14220619Y-9085552D01*
X14220619Y-9085552D02*
X14211095Y-9095076D01*
X14211095Y-9095076D02*
X14201571Y-9085552D01*
X14201571Y-9085552D02*
X14211095Y-9076029D01*
X14211095Y-9076029D02*
X14211095Y-9095076D01*
X14344429Y-8895076D02*
X14363476Y-8895076D01*
X14363476Y-8895076D02*
X14382524Y-8904600D01*
X14382524Y-8904600D02*
X14392048Y-8914124D01*
X14392048Y-8914124D02*
X14401571Y-8933171D01*
X14401571Y-8933171D02*
X14411095Y-8971267D01*
X14411095Y-8971267D02*
X14411095Y-9018886D01*
X14411095Y-9018886D02*
X14401571Y-9056981D01*
X14401571Y-9056981D02*
X14392048Y-9076029D01*
X14392048Y-9076029D02*
X14382524Y-9085552D01*
X14382524Y-9085552D02*
X14363476Y-9095076D01*
X14363476Y-9095076D02*
X14344429Y-9095076D01*
X14344429Y-9095076D02*
X14325381Y-9085552D01*
X14325381Y-9085552D02*
X14315857Y-9076029D01*
X14315857Y-9076029D02*
X14306333Y-9056981D01*
X14306333Y-9056981D02*
X14296810Y-9018886D01*
X14296810Y-9018886D02*
X14296810Y-8971267D01*
X14296810Y-8971267D02*
X14306333Y-8933171D01*
X14306333Y-8933171D02*
X14315857Y-8914124D01*
X14315857Y-8914124D02*
X14325381Y-8904600D01*
X14325381Y-8904600D02*
X14344429Y-8895076D01*
X14582524Y-8961743D02*
X14582524Y-9095076D01*
X14534905Y-8885552D02*
X14487286Y-9028410D01*
X14487286Y-9028410D02*
X14611095Y-9028410D01*
X14668238Y-8895076D02*
X14801571Y-8895076D01*
X14801571Y-8895076D02*
X14715857Y-9095076D01*
X14868238Y-8914124D02*
X14877762Y-8904600D01*
X14877762Y-8904600D02*
X14896810Y-8895076D01*
X14896810Y-8895076D02*
X14944429Y-8895076D01*
X14944429Y-8895076D02*
X14963476Y-8904600D01*
X14963476Y-8904600D02*
X14973000Y-8914124D01*
X14973000Y-8914124D02*
X14982524Y-8933171D01*
X14982524Y-8933171D02*
X14982524Y-8952219D01*
X14982524Y-8952219D02*
X14973000Y-8980790D01*
X14973000Y-8980790D02*
X14858714Y-9095076D01*
X14858714Y-9095076D02*
X14982524Y-9095076D01*
X15058714Y-8895076D02*
X15058714Y-8933171D01*
X15134905Y-8895076D02*
X15134905Y-8933171D01*
X15397762Y-9171267D02*
X15388238Y-9161743D01*
X15388238Y-9161743D02*
X15369191Y-9133171D01*
X15369191Y-9133171D02*
X15359667Y-9114124D01*
X15359667Y-9114124D02*
X15350143Y-9085552D01*
X15350143Y-9085552D02*
X15340619Y-9037933D01*
X15340619Y-9037933D02*
X15340619Y-8999838D01*
X15340619Y-8999838D02*
X15350143Y-8952219D01*
X15350143Y-8952219D02*
X15359667Y-8923648D01*
X15359667Y-8923648D02*
X15369191Y-8904600D01*
X15369191Y-8904600D02*
X15388238Y-8876029D01*
X15388238Y-8876029D02*
X15397762Y-8866505D01*
X15454905Y-8895076D02*
X15578714Y-8895076D01*
X15578714Y-8895076D02*
X15512048Y-8971267D01*
X15512048Y-8971267D02*
X15540619Y-8971267D01*
X15540619Y-8971267D02*
X15559667Y-8980790D01*
X15559667Y-8980790D02*
X15569191Y-8990314D01*
X15569191Y-8990314D02*
X15578714Y-9009362D01*
X15578714Y-9009362D02*
X15578714Y-9056981D01*
X15578714Y-9056981D02*
X15569191Y-9076029D01*
X15569191Y-9076029D02*
X15559667Y-9085552D01*
X15559667Y-9085552D02*
X15540619Y-9095076D01*
X15540619Y-9095076D02*
X15483476Y-9095076D01*
X15483476Y-9095076D02*
X15464429Y-9085552D01*
X15464429Y-9085552D02*
X15454905Y-9076029D01*
X15784429Y-9095076D02*
X15784429Y-8895076D01*
X15870143Y-9095076D02*
X15870143Y-8990314D01*
X15870143Y-8990314D02*
X15860619Y-8971267D01*
X15860619Y-8971267D02*
X15841572Y-8961743D01*
X15841572Y-8961743D02*
X15813000Y-8961743D01*
X15813000Y-8961743D02*
X15793952Y-8971267D01*
X15793952Y-8971267D02*
X15784429Y-8980790D01*
X15993952Y-9095076D02*
X15974905Y-9085552D01*
X15974905Y-9085552D02*
X15965381Y-9076029D01*
X15965381Y-9076029D02*
X15955857Y-9056981D01*
X15955857Y-9056981D02*
X15955857Y-8999838D01*
X15955857Y-8999838D02*
X15965381Y-8980790D01*
X15965381Y-8980790D02*
X15974905Y-8971267D01*
X15974905Y-8971267D02*
X15993952Y-8961743D01*
X15993952Y-8961743D02*
X16022524Y-8961743D01*
X16022524Y-8961743D02*
X16041572Y-8971267D01*
X16041572Y-8971267D02*
X16051095Y-8980790D01*
X16051095Y-8980790D02*
X16060619Y-8999838D01*
X16060619Y-8999838D02*
X16060619Y-9056981D01*
X16060619Y-9056981D02*
X16051095Y-9076029D01*
X16051095Y-9076029D02*
X16041572Y-9085552D01*
X16041572Y-9085552D02*
X16022524Y-9095076D01*
X16022524Y-9095076D02*
X15993952Y-9095076D01*
X16174905Y-9095076D02*
X16155857Y-9085552D01*
X16155857Y-9085552D02*
X16146333Y-9066505D01*
X16146333Y-9066505D02*
X16146333Y-8895076D01*
X16327286Y-9085552D02*
X16308238Y-9095076D01*
X16308238Y-9095076D02*
X16270143Y-9095076D01*
X16270143Y-9095076D02*
X16251095Y-9085552D01*
X16251095Y-9085552D02*
X16241572Y-9066505D01*
X16241572Y-9066505D02*
X16241572Y-8990314D01*
X16241572Y-8990314D02*
X16251095Y-8971267D01*
X16251095Y-8971267D02*
X16270143Y-8961743D01*
X16270143Y-8961743D02*
X16308238Y-8961743D01*
X16308238Y-8961743D02*
X16327286Y-8971267D01*
X16327286Y-8971267D02*
X16336810Y-8990314D01*
X16336810Y-8990314D02*
X16336810Y-9009362D01*
X16336810Y-9009362D02*
X16241572Y-9028410D01*
X16413000Y-9085552D02*
X16432048Y-9095076D01*
X16432048Y-9095076D02*
X16470143Y-9095076D01*
X16470143Y-9095076D02*
X16489191Y-9085552D01*
X16489191Y-9085552D02*
X16498714Y-9066505D01*
X16498714Y-9066505D02*
X16498714Y-9056981D01*
X16498714Y-9056981D02*
X16489191Y-9037933D01*
X16489191Y-9037933D02*
X16470143Y-9028410D01*
X16470143Y-9028410D02*
X16441572Y-9028410D01*
X16441572Y-9028410D02*
X16422524Y-9018886D01*
X16422524Y-9018886D02*
X16413000Y-8999838D01*
X16413000Y-8999838D02*
X16413000Y-8990314D01*
X16413000Y-8990314D02*
X16422524Y-8971267D01*
X16422524Y-8971267D02*
X16441572Y-8961743D01*
X16441572Y-8961743D02*
X16470143Y-8961743D01*
X16470143Y-8961743D02*
X16489191Y-8971267D01*
X16565381Y-9171267D02*
X16574905Y-9161743D01*
X16574905Y-9161743D02*
X16593953Y-9133171D01*
X16593953Y-9133171D02*
X16603476Y-9114124D01*
X16603476Y-9114124D02*
X16613000Y-9085552D01*
X16613000Y-9085552D02*
X16622524Y-9037933D01*
X16622524Y-9037933D02*
X16622524Y-8999838D01*
X16622524Y-8999838D02*
X16613000Y-8952219D01*
X16613000Y-8952219D02*
X16603476Y-8923648D01*
X16603476Y-8923648D02*
X16593953Y-8904600D01*
X16593953Y-8904600D02*
X16574905Y-8876029D01*
X16574905Y-8876029D02*
X16565381Y-8866505D01*
M02*
