%TF.GenerationSoftware,KiCad,Pcbnew,(7.0.0)*%
%TF.CreationDate,2023-03-14T15:58:44+01:00*%
%TF.ProjectId,ReedSensorPCB,52656564-5365-46e7-936f-725043422e6b,rev?*%
%TF.SameCoordinates,Original*%
%TF.FileFunction,Drillmap*%
%TF.FilePolarity,Positive*%
%FSLAX45Y45*%
G04 Gerber Fmt 4.5, Leading zero omitted, Abs format (unit mm)*
G04 Created by KiCad (PCBNEW (7.0.0)) date 2023-03-14 15:58:44*
%MOMM*%
%LPD*%
G01*
G04 APERTURE LIST*
%ADD10C,0.100000*%
%ADD11C,0.200000*%
%ADD12C,0.320000*%
G04 APERTURE END LIST*
D10*
X12877800Y-6019800D02*
G75*
G03*
X12954000Y-5943600I0J76200D01*
G01*
X12877800Y-7391400D02*
X12166600Y-7391400D01*
X13716000Y-5943600D02*
G75*
G03*
X12954000Y-5943600I-381000J0D01*
G01*
X13868400Y-7112000D02*
X14757400Y-7112000D01*
X14986000Y-6527800D02*
G75*
G03*
X14757400Y-6299200I-228600J0D01*
G01*
X13716000Y-6146800D02*
G75*
G03*
X13868400Y-6299200I152400J0D01*
G01*
X12954000Y-7467600D02*
G75*
G03*
X12877800Y-7391400I-76200J0D01*
G01*
X12166600Y-6019800D02*
G75*
G03*
X11938000Y-6248400I0J-228600D01*
G01*
X13868400Y-7112000D02*
G75*
G03*
X13716000Y-7264400I0J-152400D01*
G01*
X11938000Y-6248400D02*
X11938000Y-7162800D01*
X14757400Y-6299200D02*
X13868400Y-6299200D01*
X13716000Y-7264400D02*
X13716000Y-7467600D01*
X12954000Y-7467600D02*
G75*
G03*
X13716000Y-7467600I381000J0D01*
G01*
X11938000Y-7162800D02*
G75*
G03*
X12166600Y-7391400I228600J0D01*
G01*
X14757400Y-7112000D02*
G75*
G03*
X14986000Y-6883400I0J228600D01*
G01*
X13716000Y-6146800D02*
X13716000Y-5943600D01*
X12877800Y-6019800D02*
X12166600Y-6019800D01*
X14986000Y-6527800D02*
X14986000Y-6883400D01*
D11*
D12*
X13175000Y-5783600D02*
X13495000Y-6103600D01*
X13495000Y-5783600D02*
X13175000Y-6103600D01*
X13175000Y-7307600D02*
X13495000Y-7627600D01*
X13495000Y-7307600D02*
X13175000Y-7627600D01*
D11*
X12180619Y-8147076D02*
X12180619Y-7947076D01*
X12180619Y-7947076D02*
X12228238Y-7947076D01*
X12228238Y-7947076D02*
X12256809Y-7956600D01*
X12256809Y-7956600D02*
X12275857Y-7975648D01*
X12275857Y-7975648D02*
X12285381Y-7994695D01*
X12285381Y-7994695D02*
X12294905Y-8032790D01*
X12294905Y-8032790D02*
X12294905Y-8061362D01*
X12294905Y-8061362D02*
X12285381Y-8099457D01*
X12285381Y-8099457D02*
X12275857Y-8118505D01*
X12275857Y-8118505D02*
X12256809Y-8137552D01*
X12256809Y-8137552D02*
X12228238Y-8147076D01*
X12228238Y-8147076D02*
X12180619Y-8147076D01*
X12380619Y-8147076D02*
X12380619Y-8013743D01*
X12380619Y-8051838D02*
X12390143Y-8032790D01*
X12390143Y-8032790D02*
X12399667Y-8023267D01*
X12399667Y-8023267D02*
X12418714Y-8013743D01*
X12418714Y-8013743D02*
X12437762Y-8013743D01*
X12504428Y-8147076D02*
X12504428Y-8013743D01*
X12504428Y-7947076D02*
X12494905Y-7956600D01*
X12494905Y-7956600D02*
X12504428Y-7966124D01*
X12504428Y-7966124D02*
X12513952Y-7956600D01*
X12513952Y-7956600D02*
X12504428Y-7947076D01*
X12504428Y-7947076D02*
X12504428Y-7966124D01*
X12628238Y-8147076D02*
X12609190Y-8137552D01*
X12609190Y-8137552D02*
X12599667Y-8118505D01*
X12599667Y-8118505D02*
X12599667Y-7947076D01*
X12733000Y-8147076D02*
X12713952Y-8137552D01*
X12713952Y-8137552D02*
X12704428Y-8118505D01*
X12704428Y-8118505D02*
X12704428Y-7947076D01*
X12929190Y-8147076D02*
X12929190Y-7947076D01*
X12929190Y-7947076D02*
X12995857Y-8089933D01*
X12995857Y-8089933D02*
X13062524Y-7947076D01*
X13062524Y-7947076D02*
X13062524Y-8147076D01*
X13243476Y-8147076D02*
X13243476Y-8042314D01*
X13243476Y-8042314D02*
X13233952Y-8023267D01*
X13233952Y-8023267D02*
X13214905Y-8013743D01*
X13214905Y-8013743D02*
X13176809Y-8013743D01*
X13176809Y-8013743D02*
X13157762Y-8023267D01*
X13243476Y-8137552D02*
X13224428Y-8147076D01*
X13224428Y-8147076D02*
X13176809Y-8147076D01*
X13176809Y-8147076D02*
X13157762Y-8137552D01*
X13157762Y-8137552D02*
X13148238Y-8118505D01*
X13148238Y-8118505D02*
X13148238Y-8099457D01*
X13148238Y-8099457D02*
X13157762Y-8080409D01*
X13157762Y-8080409D02*
X13176809Y-8070886D01*
X13176809Y-8070886D02*
X13224428Y-8070886D01*
X13224428Y-8070886D02*
X13243476Y-8061362D01*
X13338714Y-8013743D02*
X13338714Y-8213743D01*
X13338714Y-8023267D02*
X13357762Y-8013743D01*
X13357762Y-8013743D02*
X13395857Y-8013743D01*
X13395857Y-8013743D02*
X13414905Y-8023267D01*
X13414905Y-8023267D02*
X13424428Y-8032790D01*
X13424428Y-8032790D02*
X13433952Y-8051838D01*
X13433952Y-8051838D02*
X13433952Y-8108981D01*
X13433952Y-8108981D02*
X13424428Y-8128028D01*
X13424428Y-8128028D02*
X13414905Y-8137552D01*
X13414905Y-8137552D02*
X13395857Y-8147076D01*
X13395857Y-8147076D02*
X13357762Y-8147076D01*
X13357762Y-8147076D02*
X13338714Y-8137552D01*
X13519667Y-8128028D02*
X13529190Y-8137552D01*
X13529190Y-8137552D02*
X13519667Y-8147076D01*
X13519667Y-8147076D02*
X13510143Y-8137552D01*
X13510143Y-8137552D02*
X13519667Y-8128028D01*
X13519667Y-8128028D02*
X13519667Y-8147076D01*
X13519667Y-8023267D02*
X13529190Y-8032790D01*
X13529190Y-8032790D02*
X13519667Y-8042314D01*
X13519667Y-8042314D02*
X13510143Y-8032790D01*
X13510143Y-8032790D02*
X13519667Y-8023267D01*
X13519667Y-8023267D02*
X13519667Y-8042314D01*
X11733000Y-8393600D02*
X11933000Y-8593600D01*
X11933000Y-8393600D02*
X11733000Y-8593600D01*
X12161571Y-8367076D02*
X12285381Y-8367076D01*
X12285381Y-8367076D02*
X12218714Y-8443267D01*
X12218714Y-8443267D02*
X12247286Y-8443267D01*
X12247286Y-8443267D02*
X12266333Y-8452790D01*
X12266333Y-8452790D02*
X12275857Y-8462314D01*
X12275857Y-8462314D02*
X12285381Y-8481362D01*
X12285381Y-8481362D02*
X12285381Y-8528981D01*
X12285381Y-8528981D02*
X12275857Y-8548029D01*
X12275857Y-8548029D02*
X12266333Y-8557552D01*
X12266333Y-8557552D02*
X12247286Y-8567076D01*
X12247286Y-8567076D02*
X12190143Y-8567076D01*
X12190143Y-8567076D02*
X12171095Y-8557552D01*
X12171095Y-8557552D02*
X12161571Y-8548029D01*
X12371095Y-8548029D02*
X12380619Y-8557552D01*
X12380619Y-8557552D02*
X12371095Y-8567076D01*
X12371095Y-8567076D02*
X12361571Y-8557552D01*
X12361571Y-8557552D02*
X12371095Y-8548029D01*
X12371095Y-8548029D02*
X12371095Y-8567076D01*
X12456809Y-8386124D02*
X12466333Y-8376600D01*
X12466333Y-8376600D02*
X12485381Y-8367076D01*
X12485381Y-8367076D02*
X12533000Y-8367076D01*
X12533000Y-8367076D02*
X12552048Y-8376600D01*
X12552048Y-8376600D02*
X12561571Y-8386124D01*
X12561571Y-8386124D02*
X12571095Y-8405171D01*
X12571095Y-8405171D02*
X12571095Y-8424219D01*
X12571095Y-8424219D02*
X12561571Y-8452790D01*
X12561571Y-8452790D02*
X12447286Y-8567076D01*
X12447286Y-8567076D02*
X12571095Y-8567076D01*
X12694905Y-8367076D02*
X12713952Y-8367076D01*
X12713952Y-8367076D02*
X12733000Y-8376600D01*
X12733000Y-8376600D02*
X12742524Y-8386124D01*
X12742524Y-8386124D02*
X12752048Y-8405171D01*
X12752048Y-8405171D02*
X12761571Y-8443267D01*
X12761571Y-8443267D02*
X12761571Y-8490886D01*
X12761571Y-8490886D02*
X12752048Y-8528981D01*
X12752048Y-8528981D02*
X12742524Y-8548029D01*
X12742524Y-8548029D02*
X12733000Y-8557552D01*
X12733000Y-8557552D02*
X12713952Y-8567076D01*
X12713952Y-8567076D02*
X12694905Y-8567076D01*
X12694905Y-8567076D02*
X12675857Y-8557552D01*
X12675857Y-8557552D02*
X12666333Y-8548029D01*
X12666333Y-8548029D02*
X12656809Y-8528981D01*
X12656809Y-8528981D02*
X12647286Y-8490886D01*
X12647286Y-8490886D02*
X12647286Y-8443267D01*
X12647286Y-8443267D02*
X12656809Y-8405171D01*
X12656809Y-8405171D02*
X12666333Y-8386124D01*
X12666333Y-8386124D02*
X12675857Y-8376600D01*
X12675857Y-8376600D02*
X12694905Y-8367076D01*
X12885381Y-8367076D02*
X12904429Y-8367076D01*
X12904429Y-8367076D02*
X12923476Y-8376600D01*
X12923476Y-8376600D02*
X12933000Y-8386124D01*
X12933000Y-8386124D02*
X12942524Y-8405171D01*
X12942524Y-8405171D02*
X12952048Y-8443267D01*
X12952048Y-8443267D02*
X12952048Y-8490886D01*
X12952048Y-8490886D02*
X12942524Y-8528981D01*
X12942524Y-8528981D02*
X12933000Y-8548029D01*
X12933000Y-8548029D02*
X12923476Y-8557552D01*
X12923476Y-8557552D02*
X12904429Y-8567076D01*
X12904429Y-8567076D02*
X12885381Y-8567076D01*
X12885381Y-8567076D02*
X12866333Y-8557552D01*
X12866333Y-8557552D02*
X12856809Y-8548029D01*
X12856809Y-8548029D02*
X12847286Y-8528981D01*
X12847286Y-8528981D02*
X12837762Y-8490886D01*
X12837762Y-8490886D02*
X12837762Y-8443267D01*
X12837762Y-8443267D02*
X12847286Y-8405171D01*
X12847286Y-8405171D02*
X12856809Y-8386124D01*
X12856809Y-8386124D02*
X12866333Y-8376600D01*
X12866333Y-8376600D02*
X12885381Y-8367076D01*
X13037762Y-8567076D02*
X13037762Y-8433743D01*
X13037762Y-8452790D02*
X13047286Y-8443267D01*
X13047286Y-8443267D02*
X13066333Y-8433743D01*
X13066333Y-8433743D02*
X13094905Y-8433743D01*
X13094905Y-8433743D02*
X13113952Y-8443267D01*
X13113952Y-8443267D02*
X13123476Y-8462314D01*
X13123476Y-8462314D02*
X13123476Y-8567076D01*
X13123476Y-8462314D02*
X13133000Y-8443267D01*
X13133000Y-8443267D02*
X13152048Y-8433743D01*
X13152048Y-8433743D02*
X13180619Y-8433743D01*
X13180619Y-8433743D02*
X13199667Y-8443267D01*
X13199667Y-8443267D02*
X13209190Y-8462314D01*
X13209190Y-8462314D02*
X13209190Y-8567076D01*
X13304429Y-8567076D02*
X13304429Y-8433743D01*
X13304429Y-8452790D02*
X13313952Y-8443267D01*
X13313952Y-8443267D02*
X13333000Y-8433743D01*
X13333000Y-8433743D02*
X13361571Y-8433743D01*
X13361571Y-8433743D02*
X13380619Y-8443267D01*
X13380619Y-8443267D02*
X13390143Y-8462314D01*
X13390143Y-8462314D02*
X13390143Y-8567076D01*
X13390143Y-8462314D02*
X13399667Y-8443267D01*
X13399667Y-8443267D02*
X13418714Y-8433743D01*
X13418714Y-8433743D02*
X13447286Y-8433743D01*
X13447286Y-8433743D02*
X13466333Y-8443267D01*
X13466333Y-8443267D02*
X13475857Y-8462314D01*
X13475857Y-8462314D02*
X13475857Y-8567076D01*
X13833952Y-8357552D02*
X13662524Y-8614695D01*
X14058714Y-8367076D02*
X14077762Y-8367076D01*
X14077762Y-8367076D02*
X14096810Y-8376600D01*
X14096810Y-8376600D02*
X14106333Y-8386124D01*
X14106333Y-8386124D02*
X14115857Y-8405171D01*
X14115857Y-8405171D02*
X14125381Y-8443267D01*
X14125381Y-8443267D02*
X14125381Y-8490886D01*
X14125381Y-8490886D02*
X14115857Y-8528981D01*
X14115857Y-8528981D02*
X14106333Y-8548029D01*
X14106333Y-8548029D02*
X14096810Y-8557552D01*
X14096810Y-8557552D02*
X14077762Y-8567076D01*
X14077762Y-8567076D02*
X14058714Y-8567076D01*
X14058714Y-8567076D02*
X14039667Y-8557552D01*
X14039667Y-8557552D02*
X14030143Y-8548029D01*
X14030143Y-8548029D02*
X14020619Y-8528981D01*
X14020619Y-8528981D02*
X14011095Y-8490886D01*
X14011095Y-8490886D02*
X14011095Y-8443267D01*
X14011095Y-8443267D02*
X14020619Y-8405171D01*
X14020619Y-8405171D02*
X14030143Y-8386124D01*
X14030143Y-8386124D02*
X14039667Y-8376600D01*
X14039667Y-8376600D02*
X14058714Y-8367076D01*
X14211095Y-8548029D02*
X14220619Y-8557552D01*
X14220619Y-8557552D02*
X14211095Y-8567076D01*
X14211095Y-8567076D02*
X14201571Y-8557552D01*
X14201571Y-8557552D02*
X14211095Y-8548029D01*
X14211095Y-8548029D02*
X14211095Y-8567076D01*
X14411095Y-8567076D02*
X14296810Y-8567076D01*
X14353952Y-8567076D02*
X14353952Y-8367076D01*
X14353952Y-8367076D02*
X14334905Y-8395648D01*
X14334905Y-8395648D02*
X14315857Y-8414695D01*
X14315857Y-8414695D02*
X14296810Y-8424219D01*
X14487286Y-8386124D02*
X14496810Y-8376600D01*
X14496810Y-8376600D02*
X14515857Y-8367076D01*
X14515857Y-8367076D02*
X14563476Y-8367076D01*
X14563476Y-8367076D02*
X14582524Y-8376600D01*
X14582524Y-8376600D02*
X14592048Y-8386124D01*
X14592048Y-8386124D02*
X14601571Y-8405171D01*
X14601571Y-8405171D02*
X14601571Y-8424219D01*
X14601571Y-8424219D02*
X14592048Y-8452790D01*
X14592048Y-8452790D02*
X14477762Y-8567076D01*
X14477762Y-8567076D02*
X14601571Y-8567076D01*
X14773000Y-8367076D02*
X14734905Y-8367076D01*
X14734905Y-8367076D02*
X14715857Y-8376600D01*
X14715857Y-8376600D02*
X14706333Y-8386124D01*
X14706333Y-8386124D02*
X14687286Y-8414695D01*
X14687286Y-8414695D02*
X14677762Y-8452790D01*
X14677762Y-8452790D02*
X14677762Y-8528981D01*
X14677762Y-8528981D02*
X14687286Y-8548029D01*
X14687286Y-8548029D02*
X14696810Y-8557552D01*
X14696810Y-8557552D02*
X14715857Y-8567076D01*
X14715857Y-8567076D02*
X14753952Y-8567076D01*
X14753952Y-8567076D02*
X14773000Y-8557552D01*
X14773000Y-8557552D02*
X14782524Y-8548029D01*
X14782524Y-8548029D02*
X14792048Y-8528981D01*
X14792048Y-8528981D02*
X14792048Y-8481362D01*
X14792048Y-8481362D02*
X14782524Y-8462314D01*
X14782524Y-8462314D02*
X14773000Y-8452790D01*
X14773000Y-8452790D02*
X14753952Y-8443267D01*
X14753952Y-8443267D02*
X14715857Y-8443267D01*
X14715857Y-8443267D02*
X14696810Y-8452790D01*
X14696810Y-8452790D02*
X14687286Y-8462314D01*
X14687286Y-8462314D02*
X14677762Y-8481362D01*
X14915857Y-8367076D02*
X14934905Y-8367076D01*
X14934905Y-8367076D02*
X14953952Y-8376600D01*
X14953952Y-8376600D02*
X14963476Y-8386124D01*
X14963476Y-8386124D02*
X14973000Y-8405171D01*
X14973000Y-8405171D02*
X14982524Y-8443267D01*
X14982524Y-8443267D02*
X14982524Y-8490886D01*
X14982524Y-8490886D02*
X14973000Y-8528981D01*
X14973000Y-8528981D02*
X14963476Y-8548029D01*
X14963476Y-8548029D02*
X14953952Y-8557552D01*
X14953952Y-8557552D02*
X14934905Y-8567076D01*
X14934905Y-8567076D02*
X14915857Y-8567076D01*
X14915857Y-8567076D02*
X14896810Y-8557552D01*
X14896810Y-8557552D02*
X14887286Y-8548029D01*
X14887286Y-8548029D02*
X14877762Y-8528981D01*
X14877762Y-8528981D02*
X14868238Y-8490886D01*
X14868238Y-8490886D02*
X14868238Y-8443267D01*
X14868238Y-8443267D02*
X14877762Y-8405171D01*
X14877762Y-8405171D02*
X14887286Y-8386124D01*
X14887286Y-8386124D02*
X14896810Y-8376600D01*
X14896810Y-8376600D02*
X14915857Y-8367076D01*
X15058714Y-8367076D02*
X15058714Y-8405171D01*
X15134905Y-8367076D02*
X15134905Y-8405171D01*
X15397762Y-8643267D02*
X15388238Y-8633743D01*
X15388238Y-8633743D02*
X15369191Y-8605171D01*
X15369191Y-8605171D02*
X15359667Y-8586124D01*
X15359667Y-8586124D02*
X15350143Y-8557552D01*
X15350143Y-8557552D02*
X15340619Y-8509933D01*
X15340619Y-8509933D02*
X15340619Y-8471838D01*
X15340619Y-8471838D02*
X15350143Y-8424219D01*
X15350143Y-8424219D02*
X15359667Y-8395648D01*
X15359667Y-8395648D02*
X15369191Y-8376600D01*
X15369191Y-8376600D02*
X15388238Y-8348028D01*
X15388238Y-8348028D02*
X15397762Y-8338505D01*
X15464429Y-8386124D02*
X15473952Y-8376600D01*
X15473952Y-8376600D02*
X15493000Y-8367076D01*
X15493000Y-8367076D02*
X15540619Y-8367076D01*
X15540619Y-8367076D02*
X15559667Y-8376600D01*
X15559667Y-8376600D02*
X15569191Y-8386124D01*
X15569191Y-8386124D02*
X15578714Y-8405171D01*
X15578714Y-8405171D02*
X15578714Y-8424219D01*
X15578714Y-8424219D02*
X15569191Y-8452790D01*
X15569191Y-8452790D02*
X15454905Y-8567076D01*
X15454905Y-8567076D02*
X15578714Y-8567076D01*
X15784429Y-8567076D02*
X15784429Y-8367076D01*
X15870143Y-8567076D02*
X15870143Y-8462314D01*
X15870143Y-8462314D02*
X15860619Y-8443267D01*
X15860619Y-8443267D02*
X15841572Y-8433743D01*
X15841572Y-8433743D02*
X15813000Y-8433743D01*
X15813000Y-8433743D02*
X15793952Y-8443267D01*
X15793952Y-8443267D02*
X15784429Y-8452790D01*
X15993952Y-8567076D02*
X15974905Y-8557552D01*
X15974905Y-8557552D02*
X15965381Y-8548029D01*
X15965381Y-8548029D02*
X15955857Y-8528981D01*
X15955857Y-8528981D02*
X15955857Y-8471838D01*
X15955857Y-8471838D02*
X15965381Y-8452790D01*
X15965381Y-8452790D02*
X15974905Y-8443267D01*
X15974905Y-8443267D02*
X15993952Y-8433743D01*
X15993952Y-8433743D02*
X16022524Y-8433743D01*
X16022524Y-8433743D02*
X16041572Y-8443267D01*
X16041572Y-8443267D02*
X16051095Y-8452790D01*
X16051095Y-8452790D02*
X16060619Y-8471838D01*
X16060619Y-8471838D02*
X16060619Y-8528981D01*
X16060619Y-8528981D02*
X16051095Y-8548029D01*
X16051095Y-8548029D02*
X16041572Y-8557552D01*
X16041572Y-8557552D02*
X16022524Y-8567076D01*
X16022524Y-8567076D02*
X15993952Y-8567076D01*
X16174905Y-8567076D02*
X16155857Y-8557552D01*
X16155857Y-8557552D02*
X16146333Y-8538505D01*
X16146333Y-8538505D02*
X16146333Y-8367076D01*
X16327286Y-8557552D02*
X16308238Y-8567076D01*
X16308238Y-8567076D02*
X16270143Y-8567076D01*
X16270143Y-8567076D02*
X16251095Y-8557552D01*
X16251095Y-8557552D02*
X16241572Y-8538505D01*
X16241572Y-8538505D02*
X16241572Y-8462314D01*
X16241572Y-8462314D02*
X16251095Y-8443267D01*
X16251095Y-8443267D02*
X16270143Y-8433743D01*
X16270143Y-8433743D02*
X16308238Y-8433743D01*
X16308238Y-8433743D02*
X16327286Y-8443267D01*
X16327286Y-8443267D02*
X16336810Y-8462314D01*
X16336810Y-8462314D02*
X16336810Y-8481362D01*
X16336810Y-8481362D02*
X16241572Y-8500410D01*
X16413000Y-8557552D02*
X16432048Y-8567076D01*
X16432048Y-8567076D02*
X16470143Y-8567076D01*
X16470143Y-8567076D02*
X16489191Y-8557552D01*
X16489191Y-8557552D02*
X16498714Y-8538505D01*
X16498714Y-8538505D02*
X16498714Y-8528981D01*
X16498714Y-8528981D02*
X16489191Y-8509933D01*
X16489191Y-8509933D02*
X16470143Y-8500410D01*
X16470143Y-8500410D02*
X16441572Y-8500410D01*
X16441572Y-8500410D02*
X16422524Y-8490886D01*
X16422524Y-8490886D02*
X16413000Y-8471838D01*
X16413000Y-8471838D02*
X16413000Y-8462314D01*
X16413000Y-8462314D02*
X16422524Y-8443267D01*
X16422524Y-8443267D02*
X16441572Y-8433743D01*
X16441572Y-8433743D02*
X16470143Y-8433743D01*
X16470143Y-8433743D02*
X16489191Y-8443267D01*
X16565381Y-8643267D02*
X16574905Y-8633743D01*
X16574905Y-8633743D02*
X16593953Y-8605171D01*
X16593953Y-8605171D02*
X16603476Y-8586124D01*
X16603476Y-8586124D02*
X16613000Y-8557552D01*
X16613000Y-8557552D02*
X16622524Y-8509933D01*
X16622524Y-8509933D02*
X16622524Y-8471838D01*
X16622524Y-8471838D02*
X16613000Y-8424219D01*
X16613000Y-8424219D02*
X16603476Y-8395648D01*
X16603476Y-8395648D02*
X16593953Y-8376600D01*
X16593953Y-8376600D02*
X16574905Y-8348028D01*
X16574905Y-8348028D02*
X16565381Y-8338505D01*
X16894905Y-8643267D02*
X16885381Y-8633743D01*
X16885381Y-8633743D02*
X16866334Y-8605171D01*
X16866334Y-8605171D02*
X16856810Y-8586124D01*
X16856810Y-8586124D02*
X16847286Y-8557552D01*
X16847286Y-8557552D02*
X16837762Y-8509933D01*
X16837762Y-8509933D02*
X16837762Y-8471838D01*
X16837762Y-8471838D02*
X16847286Y-8424219D01*
X16847286Y-8424219D02*
X16856810Y-8395648D01*
X16856810Y-8395648D02*
X16866334Y-8376600D01*
X16866334Y-8376600D02*
X16885381Y-8348028D01*
X16885381Y-8348028D02*
X16894905Y-8338505D01*
X16971095Y-8433743D02*
X16971095Y-8567076D01*
X16971095Y-8452790D02*
X16980619Y-8443267D01*
X16980619Y-8443267D02*
X16999667Y-8433743D01*
X16999667Y-8433743D02*
X17028238Y-8433743D01*
X17028238Y-8433743D02*
X17047286Y-8443267D01*
X17047286Y-8443267D02*
X17056810Y-8462314D01*
X17056810Y-8462314D02*
X17056810Y-8567076D01*
X17180619Y-8567076D02*
X17161572Y-8557552D01*
X17161572Y-8557552D02*
X17152048Y-8548029D01*
X17152048Y-8548029D02*
X17142524Y-8528981D01*
X17142524Y-8528981D02*
X17142524Y-8471838D01*
X17142524Y-8471838D02*
X17152048Y-8452790D01*
X17152048Y-8452790D02*
X17161572Y-8443267D01*
X17161572Y-8443267D02*
X17180619Y-8433743D01*
X17180619Y-8433743D02*
X17209191Y-8433743D01*
X17209191Y-8433743D02*
X17228238Y-8443267D01*
X17228238Y-8443267D02*
X17237762Y-8452790D01*
X17237762Y-8452790D02*
X17247286Y-8471838D01*
X17247286Y-8471838D02*
X17247286Y-8528981D01*
X17247286Y-8528981D02*
X17237762Y-8548029D01*
X17237762Y-8548029D02*
X17228238Y-8557552D01*
X17228238Y-8557552D02*
X17209191Y-8567076D01*
X17209191Y-8567076D02*
X17180619Y-8567076D01*
X17304429Y-8433743D02*
X17380619Y-8433743D01*
X17333000Y-8367076D02*
X17333000Y-8538505D01*
X17333000Y-8538505D02*
X17342524Y-8557552D01*
X17342524Y-8557552D02*
X17361572Y-8567076D01*
X17361572Y-8567076D02*
X17380619Y-8567076D01*
X17567286Y-8433743D02*
X17567286Y-8633743D01*
X17567286Y-8443267D02*
X17586334Y-8433743D01*
X17586334Y-8433743D02*
X17624429Y-8433743D01*
X17624429Y-8433743D02*
X17643476Y-8443267D01*
X17643476Y-8443267D02*
X17653000Y-8452790D01*
X17653000Y-8452790D02*
X17662524Y-8471838D01*
X17662524Y-8471838D02*
X17662524Y-8528981D01*
X17662524Y-8528981D02*
X17653000Y-8548029D01*
X17653000Y-8548029D02*
X17643476Y-8557552D01*
X17643476Y-8557552D02*
X17624429Y-8567076D01*
X17624429Y-8567076D02*
X17586334Y-8567076D01*
X17586334Y-8567076D02*
X17567286Y-8557552D01*
X17776810Y-8567076D02*
X17757762Y-8557552D01*
X17757762Y-8557552D02*
X17748238Y-8538505D01*
X17748238Y-8538505D02*
X17748238Y-8367076D01*
X17938715Y-8567076D02*
X17938715Y-8462314D01*
X17938715Y-8462314D02*
X17929191Y-8443267D01*
X17929191Y-8443267D02*
X17910143Y-8433743D01*
X17910143Y-8433743D02*
X17872048Y-8433743D01*
X17872048Y-8433743D02*
X17853000Y-8443267D01*
X17938715Y-8557552D02*
X17919667Y-8567076D01*
X17919667Y-8567076D02*
X17872048Y-8567076D01*
X17872048Y-8567076D02*
X17853000Y-8557552D01*
X17853000Y-8557552D02*
X17843476Y-8538505D01*
X17843476Y-8538505D02*
X17843476Y-8519457D01*
X17843476Y-8519457D02*
X17853000Y-8500410D01*
X17853000Y-8500410D02*
X17872048Y-8490886D01*
X17872048Y-8490886D02*
X17919667Y-8490886D01*
X17919667Y-8490886D02*
X17938715Y-8481362D01*
X18005381Y-8433743D02*
X18081572Y-8433743D01*
X18033953Y-8367076D02*
X18033953Y-8538505D01*
X18033953Y-8538505D02*
X18043476Y-8557552D01*
X18043476Y-8557552D02*
X18062524Y-8567076D01*
X18062524Y-8567076D02*
X18081572Y-8567076D01*
X18224429Y-8557552D02*
X18205381Y-8567076D01*
X18205381Y-8567076D02*
X18167286Y-8567076D01*
X18167286Y-8567076D02*
X18148238Y-8557552D01*
X18148238Y-8557552D02*
X18138715Y-8538505D01*
X18138715Y-8538505D02*
X18138715Y-8462314D01*
X18138715Y-8462314D02*
X18148238Y-8443267D01*
X18148238Y-8443267D02*
X18167286Y-8433743D01*
X18167286Y-8433743D02*
X18205381Y-8433743D01*
X18205381Y-8433743D02*
X18224429Y-8443267D01*
X18224429Y-8443267D02*
X18233953Y-8462314D01*
X18233953Y-8462314D02*
X18233953Y-8481362D01*
X18233953Y-8481362D02*
X18138715Y-8500410D01*
X18405381Y-8567076D02*
X18405381Y-8367076D01*
X18405381Y-8557552D02*
X18386334Y-8567076D01*
X18386334Y-8567076D02*
X18348238Y-8567076D01*
X18348238Y-8567076D02*
X18329191Y-8557552D01*
X18329191Y-8557552D02*
X18319667Y-8548029D01*
X18319667Y-8548029D02*
X18310143Y-8528981D01*
X18310143Y-8528981D02*
X18310143Y-8471838D01*
X18310143Y-8471838D02*
X18319667Y-8452790D01*
X18319667Y-8452790D02*
X18329191Y-8443267D01*
X18329191Y-8443267D02*
X18348238Y-8433743D01*
X18348238Y-8433743D02*
X18386334Y-8433743D01*
X18386334Y-8433743D02*
X18405381Y-8443267D01*
X18481572Y-8643267D02*
X18491096Y-8633743D01*
X18491096Y-8633743D02*
X18510143Y-8605171D01*
X18510143Y-8605171D02*
X18519667Y-8586124D01*
X18519667Y-8586124D02*
X18529191Y-8557552D01*
X18529191Y-8557552D02*
X18538715Y-8509933D01*
X18538715Y-8509933D02*
X18538715Y-8471838D01*
X18538715Y-8471838D02*
X18529191Y-8424219D01*
X18529191Y-8424219D02*
X18519667Y-8395648D01*
X18519667Y-8395648D02*
X18510143Y-8376600D01*
X18510143Y-8376600D02*
X18491096Y-8348028D01*
X18491096Y-8348028D02*
X18481572Y-8338505D01*
M02*
